1900-01-01,日本成人動畫清單 里番动画目录 アダルトアニメ目錄表 japanese adult Hanime list
--,--
2014-08-29,[140829][エンゼルフィッシュ]OVA魔法少女はキスして変身る ＃1 彼女が他の男とXXして魔法少女になるなんて！
2014-08-29,[140829][PashminaＡ]姉キュン！ ～女子が家に来た～＋特典
2014-08-29,[140829][ピンクパイナップル]PANDRA THE ANIMATION 「白き欲望 黒の希望」 II
2014-08-29,[140829][ピンクパイナップル]ばくあね 弟しぼっちゃうぞ！ THE ANIMATION
2014-08-29,[140829][Collaboration Works]都合のよいセックスフレンド？ Hなおねだり鬼仕様！5人の希望はエロエロヘビーローテーション 編
2014-08-29,[140830][PoRO]鬼父 Rebuild Vol.2「清楚に跨がるコスプレニート◆」
--,--
2014-08-08,[140808][メリー・ジェーン]女子校生の腰つき ビリヤード部創部編
2014-08-01,[140801][Hills]マドンナ ～完熟ボディCollection～THE ANIMATION
2014-08-01,[140801][BOOTLEG]淫術の館 THE ANIMATION
2014-07-25,[140725][Collaboration Works]真希ちゃんとなう。 ～真希＆由希のド変態共同『性』活編～
2014-07-25,[140725][PoRO]蠱惑の刻 「切ない少女の調べ～儚く濡れる蠱惑の刻～」
2014-07-25,[140725][ピンクパイナップル]聖娼女 THE ANIMATION 「聖女のように清らかで、娼婦のように淫らに…」
2014-07-25,[140725][ピンクパイナップル]脅迫Ⅱ ～もうひとつの明日～ コアMIX メガ盛り オカズですよ
2014-07-25,[140725][PashminaＡ]ふぇちかの！＋特典
2014-07-25,[140725][Queen Bee]らぶコロン1［emily］
2014-07-18,[140718][じゅうしぃまんご～]OVA ぱいずりチアリーダーVS搾乳応援団！ ＃1 汁だく特別レッスン
2014-07-04,[140704][メリー・ジェーン]女子高生の腰つき 写真部編
2014-07-04,[140704][AniMan]もっかいしよ？ ちーぷ▼すろーと
2014-07-04,[140704][Hills]特別授業 3SLG THE ANIMATION EXTEND
2014-06-27,[140627][Queen Bee]こんなに優しくされたの 1 ［木静謙二］ 
2014-06-27,[140627][魔人]euphoria ～白夜凛音 輪廻転生編～
2014-06-27,[140627][PoRO] 喰ヒ人 ツンデレストッキング・琴音～乱れ尻ハメ乗り2穴～
2014-06-27,[140627][ピンクパイナップル]恋愛不要学派 THE ANIMATION 「私を調教してみたい？」
2014-06-27,[140627][ピンクパイナップル]新・聖ヤリマン学園援交日記 THE ANIMATION
2014-06-13,[140613][COSMOS]ぺろぺろ☆てぃーちゃー スィート♥～スク水メイドエプロン編～
2014-06-13,[140613][COSMOS]ぺろぺろ☆てぃーちゃー スマイル♥～スク水編～
2014-06-13,[140613][COSMOS]ぺろぺろ☆てぃーちゃー ドキドキッ♥～ブルマ編～
2014-06-06,[140606][Hills]姫騎士オリヴィア 調教：02「無礼者っ。おまえのことなど愛していないわ！どんな辱めにも耐えてみせるぞっ！」
2014-05-30,[140530][PoRO]狙われた女神天使エンゼルティアー ～守った人間達に裏切られて～ 「女神天使・優理 ～啼きしゃぶる肉棒おもてなし」 初回限定版
2014-05-30,[140530][Queen Bee]イマコシステム II ～イマコさんと薬物学編～［緑のルーペ］
2014-05-30,[140530][メリー・ジェーン]乳色吐息 上巻 幼なじみに男を刻め
2014-05-30,[140530][WHITE BEAR]天然恋色アルコール 前編 ～アキラとナオト～
2014-05-30,[140530][ピンクパイナップル]恋乳ているず THE ANIMATION 「この娘とヤリたい」
2014-05-30,[140530][Collaboration Works]えろげー！～Hもゲームも開発三昧～ み、みんなが見ている前でこんなこと!? 寧々は大人のレディーだもん編
2014-05-30,[140530][ピンクパイナップル]ラブesエム THE ANIMATION 「誰にも言えない秘密」
2014-05-23,[140523][じゅうしぃまんご～] OVA おしゃぶりアナウンサー ＃1 魔法のザーメン
2014-05-02,[140502][BOOTLEG]本当にあった 女子○生 いけない秘密のアルバイト 明日香
2014-05-02,[140502][AniMan]艶美
2014-05-02,[140502][White Bear]ふた部！ 後編
2014-04-25,[140425][PashminaＡ]フルエルクチビル FUZZY LIPS 1
2014-04-25,[140425][ピンクパイナップル]鬼作 コアMIX メガ盛り オカズですよ 第二発 
2014-04-25,[140425][ピンクパイナップル]PANDRA THE ANIMATION 「白き欲望 黒の希望」
2014-04-25,[140425][鈴木みら乃]ヤバい！―復讐・闇サイト― 全世界に拡散希望。死者からのリプライは牝豚野郎の削除要請!?編 
2014-04-18,[140418][じゅうしぃまんご～]OVA 巨乳家族催眠 ＃1 家族の絆
2014-04-11,[140411][Queen Bee]たゆたゆ ＃4
2014-04-04,[140404][AniMan]やりマン不動産 おすすめ物件はコ・チ・ラ ～女社長はいつも空室あり～ 1号室
2014-03-28,[140328][ピンクパイナップル]フェラピュア ～御手洗さん家の事情～ THE ANIMATION 「朝から晩までしゃぶってあげる」
2014-03-28,[140328][PoRO]鬼父2-REVENGE- 「卑されおかっぱお袴ッ娘倍返し」
2014-03-28,[140328][ピンクパイナップル]鬼作 コアMIX メガ盛り オカズですよ
2014-03-28,[140328][PashminaＡ]いただきっ！セーエキ ～吸血鬼のフルコース～
2014-03-28,[140328][Collaboration Works]トロピカルKISS ～貧乳だって人間だ！ 女の価値は、お乳で決まる! な、訳ないじゃんバカヤロー!!　by立夏編～
2014-03-28,[140328][ミルクセーキ]美脚性奴会長 亜衣 第1巻 二之宮亜衣編
2014-03-07,[140307][AniMan] BUST TO BUST－ちちはちちに－ 続続・ちょっとくらい腐ってるのが美味いんですよ？
2014-03-07,[140307][メリー・ジェーン]虜ノ契 ～家族のために身体を差し出す姉と妹～ 下巻 姉妹の絆
2014-02-28,[140228][ピンクパイナップル]アトリエかぐや コレクション コアMIX メガ盛り オカズですよ
2014-02-28,[140228][鈴木みら乃]ヤバい！-復讐・闇サイト- いじめ速報、燃料投下！？ ネット民に問う。妹殺しはこの牝豚3人の中に…… 編
2014-02-28,[140228][PoRO]JKとオーク兵団 ～悪豚鬼に凌虐された聖女学園～ お嬢様JK恥じらい嗜虐～終わりのない始まり～
2014-02-28,[140228][ピンクパイナップル]椎葉さんのウラの顔。 with イモートリップ
2014-02-28,[140228][PashminaＡ]もう挟まずにはいられない ~星にお願いしたらこんなにおっきくなっちゃった!
2014-02-28,[140228][Queen Bee]イマコシステム I ～イマコさんとイチナくん～［緑のルーペ］
2014-02-28,[140228][サークルトリビュート]奥様は元ヤリマン
2014-02-28,[140228][ピンクパイナップル]恋騎士 Purely☆Kiss The Animation Limited Edition 「藤守由宇」
2014-02-07,[140207][ちちのや」鬼畜 ～母姉妹調教日記～ 第二話 二階堂愛美
2014-01-31,[140131][PoRO]町ぐるみの罠～白濁にまみれた肢体～ 「敦子先生は白濁塗れ・らっき～恥虐辱め尽し」
2014-01-31,[140131][ピンクパイナップル]おっぱインフィニティ∞！ THE ANIMATION「Love Letter」
2014-01-31,[140131][魔人]黒獣 ～気高き聖女は白濁に染まる～ クラウディア × セレスティン 義父との関係。女神が堕ちる朝には…編
2014-01-31,[140131][Queen Bee]たゆたゆ ＃3
2014-01-31,[140131][PIXY]りんかん倶楽部 ～第4話 真紀と素子～
2014-01-31,[140131][メリー・ジェーン]てにおはっ！～女の子だってホントはえっちだよ？～ 下巻 女友達と、いつでもどこでも
2014-01-03,[140103][Milky] 特別授業3SLG THE ANIMATION
2013-12-27,[131227][Collaboration Works] えろげー！～Hもゲームも開発三昧～ 恋するスペルマ争奪戦!? 白濁ミルクをゲットだぜ!!編
2013-12-27,[PoRO] 鬼父 Rebuild Vol.1「小生意気なじぇらしぃ輪舞（ロンド）」 
2013-12-20,[131220][ピンクパイナップル]小悪魔カノジョ THE ANIMATION 「汁まみれでトロトロ◆」
2013-12-20,[131220][じゅうしぃまんご～]OVAデカくてHな俺の姉 ＃1 朝霞姉さんの場合
2013-12-20,[131220][PashminaＡ]アマネェ！ ～トモダチンチでこんな事になるなんて！～
2013-12-13,[131213][Queen Bee]絶頂ロケット 発射2発目
2013-12-06,[131206][Hills]姫騎士オリヴィア 調教01 「このケダモノっ。たとえこの身が汚されようと、絶対にあなたのモノにはならないっ」
2013-12-06,[131206][メリー・ジェーン]虜ノ契 ～家族のために身体を差し出す姉と妹～ 上巻 恥辱の契約
2013-12-06,[131206][ちちのや]ナイショの若菜さん
2013-11-29,[131129][魔人]黒獣 ～気高き聖女は白濁に染まる～ カグヤ×ルー・ルー×マイア 柔肌に蠢く蟲、猛り狂う野獣達の夜編
2013-11-29,[131129][PoRO]鬼父2 REVENGE 「～巨乳エプロンパイズリ搾りとほのぼの腹黒お漏らし◆～」
2013-11-29,[131129][ピンクパイナップル]奴隷兎とアンソニー THE ANIMATION 「Hな欲望、私が全部叶えてあげる」
2013-11-29,[131129][ピンクパイナップル]JUNK LAND THE ANIMATION 「まじめな彼女と…思ってた？」
2013-11-29,[131129][ZIZ]対魔忍ユキカゼ ＃01 ユキカゼ編
2013-11-29,[131129][PashminaＡ］初×初シンドローム かくしデレ＃3
2013-11-22,[131122][メリー・ジェーン]てにおはっ！～女の子だってホントはえっちだよ？～ 上巻 パワハラ・セクハラ・初体験！？
2013-11-22,[131122][Queen Bee]OVAたゆたゆ ＃2
2013-11-22,[131122][ちちのや] 鬼畜 ～母姉妹調教日記～ 第一話 二階堂奈央
2013-11-01,[131101][Milky蜜(Mitsu)]姦染 Ball Buster The Animation
2013-10-25,[131025][PoRO] 蠱惑の刻 巨乳だるまっ娘・桃子 ～濡れもげ抉る切ない肢体～
2013-10-25,[131025][メリー・ジェーン]女子高生の腰つき 下巻 テニス部編
2013-10-25,[Collaboration Works]えろげー！～Hもゲームも開発三昧～ 桃色の吐息、再び!? えっちな新作げーむは桃花三昧!!編
2013-10-25,[131025][ピンクパイナップル]欲情バズーカ THE ANIMATION 「たっぷり濃いのイッパツで！」
2013-10-25,[131025][ピンクパイナップル]かがち様お慰め奉ります ～寝取られ村淫夜噺～ THE ANIMATION
2013-10-18,[131018][Queen Bee]絶頂ロケット 発射1発目
2013-10-04,[131004][メリー・ジェーン]妹ぱらだいす！2 下巻 独り占め、ヴァージンぶれいく
2013-09-27,[PuRo]ヌキどきッ！ ～天使と悪魔の搾精バトル～ 「狂乳無垢天使・セラ ～ドジっ娘清楚なえろぽっぽ」
2013-09-27,[130927][ピンクパイナップル家庭教師のおねえさん THE ANIMATION ～Hの偏差値あげちゃいます～ コアMIX メガ盛り オカズですよ
2013-09-27,[130927][PoRO]ヌキどきッ！ ～天使と悪魔の搾精バトル～ 狂乳無垢天使・セラ～ドジっ娘清楚なエロ電車
2013-09-27,[130927][鈴木みら乃]Wanna. ～SpartanSex Spermax！！！～ 中出し、媚薬、男の娘（こ）、ゲシュタルト崩壊編
2013-09-27,[130927][Queen Bee]OVAたゆたゆ ＃1
2013-09-20,[130920][こっとんど～る]OVAそれでも妻を愛してる 第三話 嫉妬の代償
2013-09-20,[130920][Speed] Seikou Vol. 1 せいこう！ ～幼なじみは照れくさそうに嘘をつく～
2013-09-06,[130906][Milky] 催眠術ZERO kamma.2「村越学園」
2013-08-30,[エンゼルフィッシュ] OVA 風輪奸山 第一巻「毒を以て毒を制す」
2013-08-30,[130830][ピンクパイナップル] 不良にハメられて受精する巨乳お母さん THE ANIMATION Insert.2『じゃあね…バイバイ』
2013-08-30,[PoRO] 真 秘湯めぐり JK若女将 伊織～悔しげに羞じらい緩む身八つ口
2013-08-30,[130830][ピンクパイナップル] 猥褻ミサイル THE ANIMATION「うっ、また出ちゃった」
2013-08-30,[鈴木みら乃] RIN×SEN＋Ran→Sem Cross Mix 淫乱宗教万歳！排泄物は、莉子のお口に……編
2013-08-23,[メリージェーン] 女子高生の腰つき 上巻 ビーチバレー部編
2013-08-03,[メリージェーン] 妹ぱらだいす！2 上巻 ヒミツのヴァージンぶれいく
2013-08-02,[Pashmina] 純情少女エトセトラ ～純情少女～
2013-08-02,[BOOTLEG] 本当にあった人妻不倫告白 本村陶子の場合 
2013-07-26,[130726][ピンクパイナップル]『恋騎士 Purely☆Kiss』 The Animation 「エルシア=ハーヴェンス」
2013-07-26,[130726][鈴木みら乃]凌成敗！～学園美少女制裁秘録～ 若菜と咲と、成敗の終わりと……編
2013-07-26,[130726][PoRO]JKとオーク兵団 ～悪豚鬼に凌虐された聖女学園～ 「クールなオッドアイ・雪乃～ハメる裏切りと豚足巨根」
2013-07-26,[130726][ピンクパイナップル]ガーデン THE ANIMATION Bloom.2『メモリー』
2013-07-19,[BOOTLEG]牝性 ペルソナ
2013-07-19,[130719][Pashmina]かくしデレ ＃2 妹チョコH 
2013-06-28,[130628][鈴木みら乃]RIN×SEN＋Ran→Sem Cross Mix 春うらら、裏切りと絶望の季節 編
2013-06-28,[130628][PoRO]Chu（治癒）してあげちゃう ～押しかけお姉さんの性交恥療～ 「エロ可愛い区 女教師・優～恥じらい弾む姉パイ盛り合わせ◆」
2013-06-28,[130628][GOLD BEAR]ぜったい遵守☆強制子作り許可証！！ 2枚目～ぜったい中出し～
2013-06-21,[130621][こっとんど～る]彼女が見舞いに来ない理由（ワケ） 理由3「擦り切れゆく想い」
2013-06-21,[130621][BOOTLEG] M男食い ラストオーダー
2013-06-21,[130621][メリー・ジェーン]メスのちトラレ 下巻 ハラまされた生徒会長
2013-06-07,[130607][Queen Bee]OVA生膣ひゃくぱぁせんと！固結びのシンパ くぱぁ ＃3 ～なないろ・うつりゆくゆうわく
2013-05-31,[PuRo]ヌキどきッ！ ～天使と悪魔の搾精バトル～ 「ツンデレ夢魔っ娘（サキュバス）・フィリカ ～悪魔が跨がり子種吸ぃ」
2013-05-31,[130531]相思相愛ノート THE ANIMATION Breast.2「おっぱい、おっぱい、おっぱい」
2013-05-31,[130531][2匹目のどぜう]理-コトワリ- ～キミの心の零れた欠片～ ～由比ヶ浜 悠基 闇に掲げる魂の問題 編～
2013-05-31,[130531][ピンクパイナップル]不良にハメられて受精する巨乳お母さん THE ANIMATION Insert.1「崩壊する母子のキズナ」
2013-05-30,[130530][An DerCen]黒と金の開かない鍵。 第二話「解き放たれた想い」
2013-05-24,[MaryJane]ツンツンメイドはエロエロです 下巻 メイドの躾けはお尻から
2013-05-24,[130524][ZIZ]鋼鉄の魔女アンネローゼ 02 窮地の魔女：Witchlose
2013-05-24,[130524][東宝]OVA ノ・ゾ・キ・ア・ナ Sexy増量版
2013-05-17,[Pashmina]姉恋 スキ・キライ・ダイスキ。 ＃02
2013-05-17,[蜜Mitsu]催眠術ZERO kamma.1「村越ゲーム」
2013-05-03,[130503][メリー・ジェーン]秘湯めぐり 隠れ湯 舞桜編 2nd.手折られる可憐な桜
2013-04-26,[130426][鈴木みら乃]凌成敗！～学園美少女制裁秘録～ 失墜のアイドル、膠着のアスリート編
2013-04-26,[130426][PoRO]JKとエロ議員センセイ「ドジっ娘メガネ秘書・初音～拗ねて抓ってハメスクワット」
2013-04-26,[130426][ピンクパイナップル]ガーデン THE ANIMATION Bloom.1『セックスフレンド』
2013-04-19,[WHITE BEAR] STARLESS IV 淫蕩な饗宴
2013-04-19,[130419][Pashmina]かくしデレ ＃1
2013-04-19,[130419][Queen Bee]OVA ピスはめ！ 6
2013-04-05,[130405][メリー・ジェーン]メスのちトラレ 上巻 ハメられた生徒会長
2013-04-05,[130405][エンゼルフィッシュ]OVA D-spray ＃1
2013-03-29,[130329][PoRo]Dark Blue Vol.2 ～見せつけられる……ヌくもり～
2013-03-29,[130329][2匹目のどぜう]理-コトワリ- ～キミの心の零れた欠片～ ～ハチャメチャ探偵みなもと 口無し美少女初夏の謎編～
2013-03-22,[130322][ピンクパイナップル]恋糸記念日 THE ANIMATION Memorial.2『急転直下のホーリーナイト☆』
2013-03-22,[130322][Queen Bee]OVA生膣ひゃくぱぁせんと！固結びのシンパ くぱぁ ＃2 ～ももいろ・にゅうはくしょくのゆうわく～
2013-03-22,[130322][ミルクセーキ]OVAマリッジブルー 「婚約者がいるのに、どうしてこんな男に…」 第一話 「私、こんなの知らないっ‥‥！！」
2013-03-15,[130315][Celeb]魍魎の贄 二人目「BAD END 孕ませ地獄 すずなとレイカ」
2013-03-02,[MaryJane]ツンツンメイドはエロエロです 上巻 ご主人様を躾けてあげる
2013-02-28,[130228][An DerCen]黒と金の開かない鍵。 第一話「鳥籠の中、微睡む少女」
2013-02-25,[130225][ぴーちぱい]「アイドル候補生 stage.1」圭編&静香編&亜美編
2013-02-22,[130222]相思相愛ノート THE ANIMATION Breast.1「セックスが嫌いな女の子はいません！」
2013-02-22,[130222][PoRO]Chu（治癒）してあげちゃう ～押しかけお姉さんの性交恥療～ 「肉食系メガネっ娘女医・貴美香～跨り貪る白衣の堕天使」
2013-02-22,[130222][こっとんど～る]フォルト!!S～新たなる恋敵～ 第一話「先輩と転校生」
2013-02-22,[130222][鈴木みら乃]Wanna. ～SpartanSex Spermax!!!～ 女→男! 白濁液無限中出し地獄!! 桐生渚沙、転入編
2013-02-22,[130222][ピンクパイナップル]聖ヤリマン学園援交日記
2013-02-22,[130222][わるきゅ～れ＋＋]魔法少女えれな Vol.03 えれな、ハジけます！≪Lands on...≫
2013-02-20,[130220][秋田書店]OAD カガクなヤツら (4巻予約限定版付属BD)
2013-02-15,[Pashmina]姉恋 スキ・キライ・ダイスキ。 ＃01
2013-02-02,[130202][メリー・ジェーン]秘湯めぐり 隠れ湯 舞桜編 1st.舞散る桜
2013-01-25,[130125][ピンクパイナップル]未亡人日記～憧れのあの女（ひと）と一つ屋根の下～
2013-01-25,[130125][PoRo]パパラブ 変態仮面っ娘・氷華～パパパンツに恋するツインテール
2013-01-25,[130125][Collaboration Works]都合のよいセックスフレンド？ ～激撮！密着SF24時!? エロエロ捜査最前線編～
2013-01-25,[130125][ピンクパイナップル]ハーレムタイム THE ANIMATION Feast.2「私、赤ちゃんが欲しいですっ」
2013-01-18,[130118][Celeb]痴漢のライセンス ＃2 私…もう戻れない…
2013-01-18,[130118][Pashmina]窓視相愛 ～純愛メロウより～
2012-12-28,[121228][PoRO]鬼父 Re-born「～小生意気な秘湯めぐり～姉妹丼道連れ編」
2012-12-28,[121228][Collaboration Works]トロピカルKISS ～ビチョ濡れダイエット！？武士は食わなきゃ後の祭編～
2012-12-21,[ピンクパイナップル] 禁断の病棟 THE ANIMATION Desire.2「淫らな診療室へようこそ」
2012-12-21,[WHITE BEAR] STARLESS III 金色の淑女
2012-12-21,[121221][ピンクパイナップル]恋糸記念日 THE ANIMATION Memorial.1「むすんで ひらいて」
2012-12-21,[121221][Celeb]魍魎の贄 一人目「BAD END 孕ませ地獄 千尋と鈴白」
2012-12-21,[121221][Queen Bee]OVA ピスはめ！ 5
2012-12-21,[121221][こっとんど～る]悪の女幹部 フルムーンナイト 第一話 肉袒牽羊
2012-12-21,[121221][メリー・ジェーン]姦染5～The Daybreak～ 下巻 レイプパーティー
2012-12-14,[121214][GOLD BEAR]ぜったい遵守☆強制子作り許可証！！ 1枚目～みんなに中出し～
2012-11-30,[121130][Collaboration Works]都合のよいセックスフレンド？ ～SF戦争勃発!! 私の武器はこの身体編～
2012-11-30,[121130][ピンクパイナップル]少女×少女×少女 THE ANIMATION 第二幕「酒池肉林」
2012-11-23,[121123][Queen Bee]OVA生膣ひゃくぱぁせんと！固結びのシンパ くぱぁ ＃1 ～あかね色・藍色のゆうわく～
2012-11-16,[121116][Celeb]痴漢のライセンス ＃1 どうして誰も助けてくれないの？
2012-10-26,[WHITE BEAR] STARLESS II 官能の演習
2012-10-26,[121026][ピンクパイナップル]ハーレムタイム THE ANIMATION Feast.1「お待ちしておりました、当主様」
2012-10-26,[121026][Collaboration Works]トロピカルKISS ～キュンっとなった花火はキレイでしょ？編～
2012-10-26,[121026][メリー・ジェーン]姦染5～The Daybreak～ 上巻 レイプハーレム
2012-10-26,[121026][PoRO]姫様限定！ 「純真無垢プリ・セリナ～純粋（ウブ）なハメしゃぶりあばんちゅ～る」
2012-10-19,[121019][バニラ]First Love 真琴 
2012-10-19,[121019][Queen Bee]OVA ピスはめ！ 4
2012-09-28,[ピンクパイナップル] 禁断の病棟 THE ANIMATION Desire.1「全ての肉欲を解き放て」
2012-09-28,[120928][PoRO]JKとエロ議員センセイ「淑やかな黒スト・初音～たおやかに歪むエロ盛りおっぱい」
2012-09-28,[120928][Collaboration Works]真希ちゃんとなう。～純真無垢天使 御園由希編～
2012-08-31,[120831][ピンクパイナップル]少女×少女×少女 THE ANIMATION 第一幕「祭子」
2012-08-24,[120824][こっとんど～る]戦乙女ヴァルキリーＧ 第二話「貪淫」
2012-08-21,        [120831][PoRO]らぶ2Quad 「完璧ドS淑女・エル～優雅に尻敷くフェイス＆ボッキ」
2012-07-27,[120727][ZIZ]鋼鉄の魔女アンネローゼ 01 魔女の従者：Witchslave
2012-07-27,[120727][PoRo]パパラブ 巨乳美尻っ娘・彩芽～あどけない天然好奇心
2012-07-27,[120727][Queen Bee]OVA ピスはめ！ 3
2012-07-20,セレカノ SEX.2
2012-07-20,[120720][こっとんど～る]戦乙女ヴァルキリーＧ 第一話「籠絡」
2012-07-20,[120720][WHITE BEAR] STARLESS I 背徳の館
2012-07-13,[HOT BEAR] school II
2012-06-29,[ピンクパイナップル] 花粉少女注意報！～THE ANIMATION～ ATTACK NO.4「ドキドキ花粉少女ランド」
2012-06-29,雨芳恋歌「テレエロおっぱい 夏恋～いちゃハメ蒸れる真夏の果実」
2012-06-29,黒獣（クロイヌ）～気高き聖女は白濁に染まる～ ～アリシア×プリム 奉仕国家抗い編～
2012-06-22,Brandish 第1話 カワユイ男の子ゲーットぉ
2012-06-15,[120615][バニラ]First Love 千夏
2012-06-15,懲罰指導 ～学園令嬢更性計画～ File.03
2012-05-25,OVA クリムゾンガールズ～痴漢支配～ 第一章 HONEY屈服
2012-05-25,オトメドリ 上巻 純潔の輪舞曲
2012-05-25,巨乳ファンタジー ～シャムシェル×ロクサーヌ 爆乳のススメ編～
2012-05-25,秘書課ドロップ THE ANIMATION
2012-05-25,[120525][Queen Bee]OVA ピスはめ！ 2
2012-05-25,[120525][PoRO]姫様限定！ 「意地っ張りお姫様・オリビア 強気に恥じらう高貴な足指」
2012-05-18,エルフ姫ニィーナ Vol.03～悪堕ちEND～
2012-04-27,ストリンジェンド ～エンジェルたちのプライベートレッスン～ MY BLOW JOBER ACT.12
2012-04-27,プリーズ-○○○-ミー！ ～千鳥悠真 ピーが！ピーを？ピーされちゃった! 編～
2012-04-27,ラブリデイ ～僕と彼女の七日間～
2012-04-27,[120427][PoRo]Dark Blue Vol.1 ～ミつめる恥ぢらい～ 
2012-04-20,おくさまは天使（ミカえる）？ 第一夜 変身！？ 突然！！ 性夜の陰謀
2012-04-20,セレカノ SEX.1
2012-04-20,妹ぱらだいす！ 2 ～お兄ちゃん、もっとしようよっ～
2012-04-13,ツンデレ淫乱少女 すくみ 2
2012-04-13,[120413][わるきゅ～れ＋＋]魔法少女えれな Vol.02 えみる、ヤります！≪Fall on≫ 
2012-04-06,姉SUMMER！ 下巻 す、好きぃぃいっ
2012-03-30,euphoria ～帆刈叶 楽園終焉編～
2012-03-30,[ピンクパイナップル] 花粉少女注意報！～THE ANIMATION～ ATTACK NO.3「女のコ何人シテるかな？」
2012-03-30,霧谷伯爵家の六姉妹 第2話「闇の家族」
2012-03-23,悪の女幹部 第二話 淫獣のしつけ
2012-03-23,異常痴態 実験奴隷 2
2012-03-23,[120323][Queen Bee]OVA ラブリデイ～僕と彼女の七日間～
2012-03-20,蠱惑の刻 つるペタコンパクト・藍 ～稚拙に膨らむつぶらなスク水～
2012-03-16,[120316][バニラ]First Love 香澄
2012-03-16,懲罰指導 ～学園令嬢更性計画～ File.02
2012-03-16,[120316][Queen Bee]OVA ピスはめ！ 1
2012-03-02,Tentacle and Witches～第3話 アイゼン＝ファウストの罠～
2012-02-24,[120224] [2匹目のどぜう] おっぱいハート～彼女はケダモノ発情期ッ！？～ 爆乳チアっ娘・茉莉～特濃ケダモノミルク搾り～
2012-02-24,TSF物語 Trans.2「痴漢！輪姦！肉便器！！」
2012-02-24,箱入少女-Virgin Territory- 下巻 優等生ユキノ
2012-02-24,[120224][Collaboration Works]真希ちゃんとなう。～悶絶淫乱娘 三条真希編～
2012-02-17,ツンデレ淫乱少女 すくみ 1
2012-02-17,妻の母 さゆり 後編
2012-02-03,HHH トリプルエッチ 4th. しぐれ編 おかわりっ
2012-01-31,孕ませて青龍君！～第2話 ハーレム妊娠END☆～
2012-01-27,少交女 THE ANIMATION Virgin.2 「家庭教師とえっちな体験」
2012-01-27,朝からずっしり ミルクポット おち○ぽみるく2杯目
2012-01-27,黒獣（クロイヌ）～気高き聖女は白濁に染まる～ ～オリガ×クロエ 黒の城、崩落編～
2012-01-27,[120127][PoRO]JKと淫行教師4「読モでびゅ～・皐月～性潤モデルのハメ受け巨乳～」
2012-01-20,ヴァンパイア 第二夜
2012-01-05,一緒にHしよっ◆ 夏川ひな編
2011-12-30,りんかん倶楽部 ～第2話 堕ちた愛子と山中知美～
2011-12-30,姉SUMMER！ 上巻 バ、バカァァッン
2011-12-26,ペットライフ テンゴロ編
2011-12-26,ラブビッチ ～優しい女…～
2011-12-22,euphoria ～真中合歓 地獄始動編～
2011-12-22,霧谷伯爵家の六姉妹 第1話「霧の華族」
2011-12-22,[111222][PoRO]鬼父 Re-born「～小生意気な秘湯めぐり～旅情編」 
2011-12-16,それでも妻を愛してる 第二話
2011-12-16,メイド姉 二日目
2011-12-16,異常痴態 実験奴隷 1
2011-12-16,[111216][Queen Bee]OVA 放課後にゃんにゃん
2011-12-09,妹ぱらだいす！ 1 ～お兄ちゃん、わたしとしようよっ～
2011-12-08,STAR☆jewel スタージュエル
2011-11-25,Bloods ～淫落の血族 2～ 天然クール・香夜～妖艶に拗ねて甘える黒髪ロング～ 2
2011-11-25,[HOT BEAR] school I
2011-11-25,TSF物語 Trans.1「女体化したらナニをする？」
2011-11-25,えろげー！ Hもゲームも開発三昧 ～びしょ濡れ！？美少女くりえーたーず編～
2011-11-25,東雲太郎 Swing Out Sisters vol.1
2011-11-22,ストリンジェンド ～エンジェルたちのプライベートレッスン～ MY BLOW JOBER ACT.11
2011-11-18,プリンセスナイト☆カチュア Vol.03 狂宴の一族
2011-11-18,悪の女幹部 第一話 掌握の力 覚醒
2011-11-18,懲罰指導 ～学園令嬢更性計画～ File.01
2011-11-18,陰湿オタクにイカれる妹（彼女） 精液奴隷
2011-10-28,しおふきマーメイド ｢プールサイドの初体験」
2011-10-28,少交女 THE ANIMATION Virgin.1 「絢音と柚とお兄ちゃん」
2011-10-28,蠱惑の刻 「腹ボテクール・雪乃～恥蜜に溢れる緩んだ恥穴」
2011-10-26,[111028] [2匹目のどぜう] おっぱいハート～彼女はケダモノ発情期ッ！？～ 甘姉・美弥～天然ブラコンの発情巨乳～
2011-10-21,HHH トリプルエッチ 3rd. みゆき編
2011-10-21,それでも妻を愛してる 第一話
2011-10-21,妻の母 さゆり 前編
2011-10-21,貴方だけこんばんわ 「零子」
2011-09-30,Dream Note 第二話「堕落家族、乱交開始！」
2011-09-30,Reunion. 摩穂のつれない制服 ～クールなポニテの切ないおねだり～
2011-09-30,Tentacle and Witches～第2話 プールの水で濡れてるんだから！～
2011-09-30,ストリンジェンド ～エンジェルたちのプライベートレッスン～ MY BLOW JOBER ACT.10
2011-09-30,夢喰い -つるみく式ゲーム製作- ～樟葉悠美 開発編～
2011-09-30,箱入少女-Virgin Territory- 上巻 理想のお嬢様
2011-09-16,ヴァンパイア 第一夜
2011-08-26,WiZARD GiRL AMBiTiOUS ぷちパイ・アスカ ～小振りなわがままウィザードの反逆～
2011-08-26,えろげー！ Hもゲームも開発三昧 ～姫乃きさら 恋、始めました編～
2011-08-26,めんくい！ Face.2 「メイドと主人と2号ちゃん」
2011-08-26,豚姫様
2011-08-26,魔法少女イスカ ～Vol.03 堕淫～
2011-08-19,くのいち 咲夜 第二巻 「白濁液にまみれた那霧のくのいち」
2011-08-19,メイド姉 一日目
2011-08-19,淫妖蟲 悦 ～怪楽変化退魔録～ 第二夜
2011-08-05,ショッキングピンク！ 第2話 長坂の戦い
2011-08-05,朝からずっしり ミルクポット おち○ぽみるく1杯目
2011-08-05,陰湿オタクにイカれる妹（彼女） 痴漢調教
2011-07-29,Bloods ～淫落の血族 2～ ミニ・美咲～意地っ張りなニーソ～
2011-07-29,エルフ姫ニィーナ Vol.02～触手スーツの娼婦姫～
2011-07-29,夢喰い -つるみく式ゲーム製作- ～樟葉瑠美 調教編～
2011-07-29,あねき…MY SWEET ELDER SISTER THE ANIMATION senior.4「素直になれなくて…」
2011-07-22,コスプレ露出研究会 2日目
2011-07-22,学園3 ～華麗なる悦辱～ THE ANIMATION EPISODE 02
2011-07-22,[110722][こっとんど～る]彼女が見舞いに来ない理由（わけ） 理由2「終わらない饗乱」
2011-07-22,Sweet Home ～Hなお姉さんは好きですか？～ 「三甘」
2011-07-08,[120708][わるきゅ～れ＋＋]魔法少女えれな Vol.01 えれな、イキます！≪Lift off≫
2011-07-01,孕ませて青龍君！～第1話 私と子づくりをしろ～
2011-06-24,Ran→Sem ～白濁デルモ妻のミイラ捕り～ 一ノ瀬杏奈 阿鼻叫喚編
2011-06-24,Reunion. 理英先生の個人授業 ～可愛く拗ねる年上の彼女～
2011-06-24,ショッキングピンク！ 第1話 桃園の誓い
2011-06-24,ストリンジェンド ～エンジェルたちのプライベートレッスン～ MY BLOW JOBER ACT.9
2011-06-24,陰湿オタクにイカれる妹（彼女） 処女喪失
2011-06-17,[110617][AniMan]Bust to Bust-ちちはちちに - 続・ちょっとくらい腐ってるのが美味いんですよ？
2011-06-17,貴方だけこんばんわ 「桃音」
2011-06-10,セーラー服 心療妻科 後編
2011-05-27,Ran→Sem ～白濁デルモ妻のミイラ捕り～ 一ノ瀬莉子 自己解放編
2011-05-27,Tentacle and Witches～第1話 俺、触手になりました～
2011-05-27,めんくい！ Face.1 「初めてだから…優しくして」
2011-05-27,コスプレ露出研究会 1日目
2011-05-27,ビーチクビーチ ～南国乳辱撮影会～
2011-05-27,俺は彼女を信じてる！ 上巻「セカンドヴァージン」
2011-05-27,[110527][PoRO]JKと淫行教師4「読モ・静歌～生意気モデルの性旬白書」
2011-05-20,Sweet Home ～Hなお姉さんは好きですか？～ 「二甘」
2011-05-20,フォルト！！ ＃3 「…大好きです」
2011-05-20,別にアンタの為に大きくなったんじゃないんだからねっ！！
2011-05-20,彼女×彼女×彼女～三姉妹とのドキドキ共同生活～ 第3話 都会はお祭りとお風呂とハーレムパラダイス
2011-05-13,主治医の淫謀 後編
2011-05-02,15美少女漂流記OVA 03
2011-04-29,りんかん倶楽部 ～第1話 山崎鈴子と桂木愛子～
2011-04-29,美麗女将・美恵 小料理屋の慕情 ～喪服妻 第二巻～.
2011-04-28,あねき…MY SWEET ELDER SISTER THE ANIMATION senior.3「早紀先輩、ふたたび…」
2011-04-28,ファイティング オブ エクスタシー Vol.2「女忍者無惨」
2011-04-28,[110428][PoRO]鬼父 Re-birth「小生意気なヒップホール」
2011-04-20,擬態催眠 後編
2011-04-15,オトコの娘◆お嬢様っ 光と綾奈の秘密コレクション
2011-04-15,山姫の花 -真穂-
2011-04-01,レイZERO～episode02 女捜査官はメス豚に堕ちた！～
2011-04-01,少女戦機ブレインジャッカー 「美神陥落・リン=カイフォン」
2011-03-25,Floating Material 下巻 「こういうの……スキ」
2011-03-25,ストリンジェンド ～エンジェルたちのプライベートレッスン～ MY BLOW JOBER ACT.8
2011-03-25,虜姫～白濁まみれの令嬢～ 下巻
2011-03-25,輪罠～白濁まみれの放課後～ 下巻 狂宴の果てに
2011-03-18,学園3 ～華麗なる悦辱～ THE ANIMATION EPISODE 01
2011-03-18,貴方だけこんばんわ 「綾音」
2011-03-15,オナ×2
2011-03-11,セーラー服 心療妻科 前編
2011-03-11,吸尻鬼 上巻 淫肛を渇望する一族?ダークストーカーズ?
2011-02-25,Floating Material 上巻 「いけないのに……わたし」
2011-02-25,くのいち 咲夜 第一巻 「くのいち捕縛」
2011-02-25,ファイティング オブ エクスタシー Vol.1「女格闘家散華」
2011-02-25,姉汁 2 THE ANIMATION ～白川三姉妹におまかせ～ Liquid.2 「エッチなこと何でもしてあげる♪」
2011-02-25,秘湯めぐり 隠れ湯 下巻 「若女将は堕とし頃」
2011-02-25,輪罠～白濁まみれの放課後～ 上巻 処女喪失
2011-02-18,宮崎摩耶大図鑑 巻ノ二
2011-02-18,寝取られファイター ヤリっちんぐ！ ROUND3
2011-02-18,戦乙女ヴァルキリー2 第三話 「恥じらいの性懺悔」
2011-02-15,一緒にHしよっ◆ 二葉勇希編
2011-02-11,主治医の淫謀 前編
2011-02-08,Sweet Home ～Hなお姉さんは好きですか？～ 「一甘」
2011-01-28,HHH トリプルエッチ 2nd. こなみ編
2011-01-28,ふくびき！トライアングル ～美晴アフター～ 下巻「あたしのことだけ見てればいいのっ」
2011-01-28,家庭教師のおねえさん 2 THE ANIMATION 2
2011-01-28,虜姫～白濁まみれの令嬢～ 上巻
2011-01-21,プリンセスナイト☆カチュア Vol.02 淫堕の女王
2011-01-21,淫妖蟲 悦 ～怪楽変化退魔録～ 第一夜
2011-01-14,擬態催眠 前編
2010-12-30,監獄戦艦 Vol.04 地獄END
2010-12-24,凌辱ファミレス調教メニュー 下巻 「妹・萌美」
2010-12-24,姦染3 首都崩壊 ～マルガリータ・B・穂村編～ GB
2010-12-23,秘湯めぐり 隠れ湯 上巻 「幼なじみは若女将」
2010-12-22,ストリンジェンド ～エンジェルたちのプライベートレッスン～ MY BLOW JOBER ACT.7
2010-12-22,愛妻日記
2010-12-17,寝取られファイター ヤリっちんぐ！ ROUND2
2010-12-17,指先案内人 汁だく接待おかわり三杯目 第三話
2010-12-10,せめちち 後編
2010-12-05,明菜と温泉でHしよっ◆ 宮沢明菜編
2010-11-26,HHH トリプルエッチ 1st. しぐれ編
2010-11-26,乙女蹂躙遊戯 下巻
2010-11-26,姉汁 2 THE ANIMATION ～白川三姉妹におまかせ～ Liquid.1 「オナニーのお手伝いしてあげる♪」
2010-11-26,鬼父2 下巻 「巨乳と天然の卑しと嫉み」
2010-11-26,魔法少女イスカ ～Vol.02 魔獄～
2010-11-19,宮崎摩耶大図鑑 巻ノ一
2010-11-19,指先案内人 汁だく接待おかわり三杯目 第二話
2010-11-19,教育指導
2010-11-19,[101119][こっとんど～る]彼女が見舞いに来ない理由（わけ） 理由1「恋人の目の前で…」
2010-11-17,あきそら～夢の中～ 下巻
2010-11-12,姦淫特急 満潮 後編
2010-11-02,G-Taste G-Best
2010-10-29,Last Waltz ～白濁まみれの夏合宿～ 下巻
2010-10-29,エルフ姫ニィーナ Vol.01～淫城に囚われし麗姫～
2010-10-29,喪服妻 ＃1 「未亡人保奈美」
2010-10-29,鬼父2 上巻 「おバカな袴っ娘の反省」
2010-10-22,プリンセスラバー！ 下巻「ひとりにシたくない夜」
2010-10-22,家庭教師のおねえさん 2 THE ANIMATION 1
2010-10-15,山姫の実 第三巻 きずな
2010-10-15,殻ノ少女 第2話
2010-10-15,[ちちのや] 真章・幻夢館 Epilogue.2 ～愛と真実と護るべきもの～
2010-10-08,美熟母 後編
2010-10-05,[101015][AniMan]Bust to Bust -ちちはちちに- ちょっとくらい腐ってるのが美味いんですよ？
2010-09-25,[ちちのや] 真章・幻夢館 Epilogue 第四話 〜真実と護るべきもの〜
2010-09-24,凌辱ファミレス調教メニュー 上巻 「焦らしちゃ……いや……」
2010-09-24,姦染3 首都崩壞 ～神なぎ悠帆編～
2010-09-24,少女戦機 ソウルイーター ＃1 「復讐の美少女・円城命」
2010-09-23,アニメ 少年メイドクーロ君 ～天使の歌～
2010-09-22,独蛾 ～THE ANIMATION～ Counseling.4「幻想」
2010-09-18,[ちちのや] 真章・幻夢館 Epilogue 第三話 ～愛と真実～
2010-09-17,プリンセスラバー！ 上巻「キミといっしょの朝」
2010-09-17,指先案内人 汁だく接待おかわり三杯目 第一話
2010-09-17,超昂閃忍ハルカ 参 いにしえの閃忍
2010-09-15,ネトラレ ～田辺優香の独白～
2010-09-10,せめちち 前編
2010-08-27,あい☆きゃん 下巻 「わたし……しちゃいました」
2010-08-27,ストリンジェンド ～エンジェルたちのプライベートレッスン～ MY BLOW JOBER ACT.6
2010-08-27,乙女蹂躙遊戯 上巻
2010-08-27,魔界騎士イングリッド ～episode04 惨めなる果て～
2010-08-20,学園催眠隷奴 anime02 もうダメ、子宮に中出しされてイグゥ～
2010-08-20,殻ノ少女 第1話
2010-08-15,叱って淫語 三咲主任の部下教育編
2010-08-06,姦淫特急 満潮 前編
2010-08-03,15美少女漂流記OVA 02
2010-07-30,RIN×SEN～白濁女教師と野郎ども～下巻
2010-07-30,あきそら～夢の中～ 上巻
2010-07-30,その花びらにくちづけを あなたと恋人つなぎ
2010-07-30,姫騎士リリア VOL.06 魔色に染まる最後
2010-07-30,町ぐるみの罠～白濁にまみれた肢体～ 下巻 ｢ゆいのお尻がっ……｣
2010-07-23,お嬢様はHがお好き～THE ANIMATION～ celebrity.2 「女医もメイドも乱交もお好き☆」
2010-07-16,おっぱいの王者48 何も考えず目の前のおっぱい全部しゃぶれ！ 第二話
2010-07-16,寝取られファイター ヤリっちんぐ！ ROUND1
2010-07-15,一緒にHしよっ◆ 結衣＆葵編
2010-07-09,美熟母 前編
2010-07-02,レイZERO～episode01 特務捜査官を捕えよ！～
2010-06-26,宇宙海賊サラ VOL.04 逆転の海賊騎士
2010-06-25,DISCIPLINE 零 後編
2010-06-25,あい☆きゃん 上巻 「そんなこと……したくありませんっ」
2010-06-25,姦染2 淫罪都市 ～長崎千尋編～
2010-06-25,独蛾 ～THE ANIMATION～ Counseling.3「羞恥」
2010-06-18,彼女×彼女×彼女～三姉妹とのドキドキ共同生活～ 第2話 都会はトイレ、保健室、メイドパラダイス
2010-06-15,アルバイトしよっ！！
2010-06-11,プリンセスナイト☆カチュア Vol.01 零落の竜騎姫
2010-06-11,透明人間R 後編
2010-05-28,RIN×SEN～白濁女教師と野郎ども～上巻
2010-05-28,ストリンジェンド ～エンジェルたちのプライベートレッスン～ MY BLOW JOBER ACT.5
2010-05-28,フォルト！！ ＃2 「三人で一緒に…」
2010-05-28,監獄戦艦 Vol.02 洗脳改造
2010-05-28,鬼父 下巻 「はしたない清楚なレギンス」
2010-05-21,牝教師 淫辱の教室 ＃3 私、仕合わせです…
2010-05-19,Newmanoid CAM～キャム=キャスティン～
2010-05-15,一緒にHしよっ◆ 辻すずらん編
2010-05-14,義母散華 後編
2010-04-30,Last Waltz ～白濁まみれの夏合宿～ 上巻
2010-04-30,ふくびき！トライアングル ～美晴アフター～ 上巻「お姉ちゃん寝ちゃいましたね……」
2010-04-30,淫夢学園 第一話「淫夢に囚われた美人姉妹」
2010-04-30,聖徒會長ヒカル上巻「公開處女喪失」
2010-04-30,魔法少女イスカ ～Vol.01 邂逅～
2010-04-23,お嬢様はHがお好き～THE ANIMATION～ celebrity.1 「浴衣も水着もお風呂も好き」
2010-04-16,学園催眠隷奴 anime01 あんたって本当に最低の屑だわ！
2010-04-16,陰陽師 妖かしの女神 ～淫乱呪縛～ 第弐話 最後の女神
2010-04-15,[ちちのや] 真章・幻夢館 Epilogue.1 ～夢と告白と迷走～
2010-04-09,麗辱の館 後編
2010-04-02,魔界騎士イングリッド ～episode03 屈辱の誓約～
2010-03-26,ワルキューレ調教・ザーメンタンクの戦乙女10人姉妹 下巻
2010-03-26,乙女恥曝遊戯 下巻 ～屈辱倍返し！！～
2010-03-26,夏蟲 THE ANIMATION molester.2「冬虫花葬」
2010-03-19,おっぱいの王者48 何も考えず目の前のおっぱい全部しゃぶれ！ 第一話
2010-03-12,透明人間R 前編
2010-02-26,Diabolus～鬼哭～ 下巻 「追憶の辱め」
2010-02-26,いっしょにエッチ
2010-02-26,アッチェレランド ～堕天使たちの囁き～ CONTENTS.4
2010-02-26,乙女恥曝遊戯 上巻 ～屈辱倍返し！！～
2010-02-26,姦染2 淫罪都市 ～速水編
2010-02-26,町ぐるみの罠～白濁にまみれた肢体～ 上巻 ｢白濁に堕ちる白墨｣
2010-02-19,超昂閃忍ハルカ 弐 龍の者
2010-02-19,[Milky] 魔界天使ジブリール 3 Vol.2 強襲！魔界天使
2010-02-15,一緒にHしよっ◆ 宮沢明菜編
2010-02-15,一緒にHしよっ◆ 高井春香編
2010-02-12,義母散華 前編
2010-01-29,DISCIPLINE 零 前編
2010-01-29,かぎろひ～勺景～ 下巻 「触手調教」
2010-01-29,とらいあんぐるBLUE 下巻  「貴方だけ……」
2010-01-29,シオン Vol.04 堕ちた魔法の天使
2010-01-29,私の知らない妻の貌
2010-01-15,淫欲絵巻 ～雪夜に姫は犯される～
2010-01-15,麗辱の館 前編
2010-01-09,アッチェレランド ～堕天使たちの囁き～ CONTENTS.3
2010-01-05,彼女は花嫁候補生？ シンデレラコレクション vol.2
2009-12-25,Diabolus～鬼哭～ 上巻 「鬼姫の疼き」
2009-12-25,ストリンジェンド ～エンジェルたちのプライベートレッスン～ MY BLOW JOBER ACT.4
2009-12-25,ワルキューレ調教・ザーメンタンクの戦乙女10人姉妹 上巻
2009-12-25,夏蟲 THE ANIMATION molester.1「ともえ」
2009-12-25,姦染1 淫慾の連鎖 ～佐伯 瞳 編～
2009-12-25,彷徨う淫らなルナティクス～前編～
2009-12-25,彼女×彼女×彼女～三姉妹とのドキドキ共同生活～ 第1話 都会はおっとり、しっかり、小悪魔パラダイス
2009-12-25,牝教師 淫辱の教室 ＃2 私、もう戻れません…
2009-12-25,狂った教頭 断罪の学園 ～誕生編～
2009-12-25,監獄戦艦 Vol.02 洗脳改造
2009-12-18,びんかんアスリート 第1話 「うわさのエッチなマッサージ♪」
2009-12-15,爆乳BOMB ＃1 看護士 立花薫 病院の中は煩悩がいっぱい。
2009-12-15,爆乳BOMB ＃2 美人妻 椎名美咲 昼間の団地は秘密がいっぱい。
2009-12-15,爆乳BOMB ＃3 女教師 若槻理沙 男子トイレは危険がいっぱい。
2009-12-11,相関遊戯2 後編
2009-11-27,かぎろひ～勺景～ 上巻 「地獄触手」
2009-11-27,フォルト！！ ＃1 「好きにしていいから…」
2009-11-27,姫騎士リリア VOL.05 悦獄、キリコとレイラ
2009-11-27,[鈴木みら乃] 横恋母 ～Immoral Mother～ 下巻
2009-11-27,水着彼女 ～THE ANIMATION～Fit.4「水着と二人の彼女」
2009-11-25,あなたの知らない看護婦 ～性的病棟24時～ 第二話 私を永遠に汚して…
2009-11-25,陰陽師 妖かしの女神 ～淫乱呪縛～ 第壱話 淫らの呪
2009-11-13,ママぷりっ！？ 後編
2009-10-30,姦染1 淫慾の連鎖 ～山岸 優編 ～
2009-10-30,鬼父 上巻 「小生意気なホットパンツ」
2009-10-30,魔界騎士イングリッド ～episode02 ムラサキ被虐～
2009-10-25,彼女は花嫁候補生？ シンデレラコレクション vol.1
2009-10-25,貴方だけこんばんわ 第2話「誓約」
2009-10-23,ストリンジェンド ～エンジェルたちのプライベートレッスン～ MY BLOW JOBER ACT.3
2009-10-09,人妻交姦日記 後編
2009-10-02,装甲騎女イリス Vol.04 被虐戦士の生還
2009-09-25,[Milky]魔界天使ジブリール 3 Vol.1 見参！ジブリール・ゼロ
2009-09-25,御魂 ～忍～ 巻の二
2009-09-25,[鈴木みら乃] 横恋母 ～Immoral Mother～ 上巻
2009-09-25,独蛾 ～THE ANIMATION～ Counseling.2「覚醒」
2009-09-11,相関遊戯2 前編
2009-08-28,Dream Note 第一話「美人一家、嗜虐の催眠凌辱」
2009-08-28,とらいあんぐるBLUE 上巻 「これ以上は…ダメ」
2009-08-28,戦乙女スヴィア VOL.04 隷属の花嫁
2009-08-28,水着彼女 ～THE ANIMATION～Fit.3「時をかけるくの一」
2009-08-25,きみはぐ Vol.2
2009-08-25,超昂閃忍ハルカ 壱 双龍輪
2009-08-14,ママぷりっ！？ 前編
2009-08-03,15美少女漂流記OVA 01
2009-07-31,エルフの双子姫 ウィランとアルスラ 第一話「恥辱の処女調教」
2009-07-31,ストレッタ～THE ANIMATION～Contents.2「～ルマ～」
2009-07-31,宇宙海賊サラ VOL.03 狂宴のふたなり騎士
2009-07-31,恥熱カルテ The Devilish Cherry 下巻
2009-07-25,山姫の実 第二巻 真砂絵
2009-07-25,貴方だけこんばんわ 第1話「零子」
2009-07-24,爆乳メイド狩り 後編
2009-07-10,レイプ！レイプ！レイプ！ Vol.03 連鎖する狂気
2009-07-10,人妻交姦日記 前編
2009-06-26,恥熱カルテ The Devilish Cherry 上巻
2009-06-26,独蛾 ～THE ANIMATION～ Counseling.1「診療」
2009-06-26,魔界騎士イングリッド ～episode01 イングリッド無残～
2009-06-25,カルタグラ ツキ狂イノ病 第二夜
2009-06-25,炎の孕ませ同級生 第2話 野望はどこまでも
2009-06-25,牝教師 淫辱の教室 ＃1 私、汚されてしまいました…
2009-06-19,催眠凌辱学園 第三話 集団催眠術
2009-06-12,息子の友達に犯されて 後編
2009-05-29,カフェ・ジャンキー 2nd.「Caffe Latte」
2009-05-29,ストレッタ～THE ANIMATION～Contents.1「あるいはもののけ」
2009-05-29,監獄戦艦 Vol.01 洗脳の序曲
2009-05-25,きみはぐ Vol.1
2009-05-25,魔法少女アイ参 VOL.3 魔法少女光臨
2009-05-15,人工少女 後編 ～変身セックスアンドロイド～
2009-05-01,[090501][PIXY]奴隷メイドプリンセス VOL.04 調教済みロッテ
2009-04-25,カルタグラ ツキ狂イノ病 第一夜
2009-04-25,リゾートBOIN 第3話～南の島のハレンチ編～
2009-04-24,水着彼女 ～THE ANIMATION～Fit.2「白い誘惑」
2009-04-24,満淫電車 調書3 「舌たらずな放課後、急発射注意」
2009-04-24,爆乳メイド狩り 前編
2009-03-27,シオン Vol.03 隷属の天使たち
2009-03-27,ヘルタースケルター 白濁の村 下巻
2009-03-27,催眠凌辱学園 第二話 身代わりの術
2009-03-25,あなたの知らない看護婦 ～性的病棟24時～ 第一話 天使たちの素顔
2009-03-25,真・燐月 下巻 真・誓い編
2009-03-25,魔法少女アイ参 VOL.2 メグ見参
2009-03-13,息子の友達に犯されて 前編
2009-02-27,キミの名を呼べば 下巻
2009-02-27,戦乙女ヴァルキリー2 第二話 「裏切りの雌奴隷」
2009-02-27,装甲騎女イリス Vol.03 戦士から悦虐娼婦へ
2009-02-25,催眠術 2nd version-2～幻想と淫欲の領域に～
2009-02-25,御魂 ～忍～ 巻の一
2009-02-13,レイプ！レイプ！レイプ！ Vol.02 真白き闇
2009-02-13,人工少女 前編 ～変身セックスアンドロイド～
2009-01-31,ヘルタースケルター 白濁の村 上巻
2009-01-30,彷徨う淫らなルナティクス～前編～
2009-01-25,魔法少女アイ参 VOL.1 魔法少女再臨
2009-01-25,[Milky] 魔界天使ジブリール2 Vol.4 究極！ジブリールより愛をこめて…
2009-01-23,水着彼女 ～THE ANIMATION～Fit.1「みずほ！エクササイズ！」
2009-01-09,OPPAIライフ 後編
2008-12-29,催眠凌辱学園 第一話 擬似体験術
2008-12-28,戦乙女スヴィア VOL.03 絶望の輪姦
2008-12-26,初犬 2 The Animation ストレンジ・カインド オブ ウーマンズ～again～ Sample.2「あなたのアソコ…っきくしてあげる♪」
2008-12-26,淫妖蟲 THE ANIMATION 恥録二「母性」
2008-12-25,あねいも 第2章 ～Triangle Lovers～
2008-12-25,炎の孕ませ同級生 第1話 野望のはじまり
2008-12-12,必殺痴漢人 後編
2008-11-28,Love Selection ～THE ANIMATION～ Select.2 「Favorite Menu」
2008-11-28,キミの名を呼べば 上巻
2008-11-28,学園姉妹 2
2008-11-28,宇宙海賊サラ VOL.02 虜囚の被虐騎士
2008-11-28,幼なじみと同級生 2限目 愛情≦悦楽
2008-11-25,少女セクト 3時限目 Innocent Lovers
2008-11-25,真・燐月 上巻 真・祈り編
2008-11-14,催眠学園 後編
2008-10-31,カフェ・ジャンキー 1st.「Cafe Macchiato」
2008-10-31,ストリンジェンド＆アッチェレランド ULTIMATUM ～SERA～ ＃3♪「序章＆終章」
2008-10-31,奴隷メイドプリンセス VOL.03 最後の調教
2008-10-25,催眠術 2nd version-1～幻想と淫夢の世界に～
2008-10-25,姫奴隷 第二幕 魔物の子種を堕とす麗姫の哀
2008-10-19,ぴこ×CoCo×ちこ シリーズぴこ3
2008-10-10,OPPAIライフ 前編
2008-10-07,レイプ！レイプ！レイプ！ Vol.01 最初の犠牲者
2008-09-26,エロマンガみたいな恋しよう PAGE.2「おおきいことはいいことだ」
2008-09-26,シオン Vol.02 窮地の魔法少女
2008-09-26,初犬 2 The Animation ストレンジ・カインド オブ ウーマンズ～again～ Sample.1「エッチなコトバ…っぱい言ってあげる♪」
2008-09-26,戦乙女ヴァルキリー2 第一話 「堕天の女神達」
2008-09-26,連結方式 3rd.「BLIND」
2008-09-25,妻しぼり 第二幕 咲良と円どっちにするの…？
2008-09-25,少女セクト 2時限目 Innocent Lovers
2008-09-12,必殺痴漢人 前編
2008-08-29,Grope ～闇の中の小鳥達～ 2nd.「S～エス～」
2008-08-29,Love Selection ～THE ANIMATION～ Select.1 「Love Selection」
2008-08-29,ストリンジェンド＆アッチェレランド ULTIMATUM ～SERA～ ＃2♪「それぞれの日常」
2008-08-29,対魔忍アサギ Vol.04 闇に舞うくノ一
2008-08-25,あねいも 第1章 ～Square Sisters～
2008-08-25,淫妖蟲 蝕 ～凌触島退魔録～ 弐の巻
2008-08-08,催眠学園 前編
2008-08-01,学園姉妹 1
2008-08-01,幼なじみと同級生 1限目 愛情≦悦楽
2008-08-01,装甲騎女イリス Vol.02 娼館の女戦士
2008-07-25,個人授業 ～THE ANIMATION～ Lesson.2「密閉水槽」
2008-07-25,姫騎士アンジェリカ 第2夜 復讐のセラフィーナ
2008-07-25,少女セクト 1時限目 Innocent Lovers
2008-07-25,思春期少女 下巻「かりかり」
2008-07-25,放課後2 ～紗由理～ 「気高き薔薇姫は熟れて熱く」
2008-07-18,春恋乙女 ～乙女の園で逢いましょう。～ 後編
2008-07-11,十二人の女教師 後編
2008-06-27,そらのいろ、みずのいろ 下巻「わたしも……してあげる」
2008-06-27,エロマンガみたいな恋しよう PAGE.1「エロマンガみたいな恋しよう」
2008-06-27,学園2 EPISODE 02 「らめぇぇぇぇっ！妊娠いやあぁぁぁぁっっ！」
2008-06-27,戦乙女スヴィア VOL.02 快楽の罠
2008-06-27,[ピンクパイナップル] 花粉少女注意報！～THE ANIMATION～ ATTACK NO.2「ヌルヌルでドロドロが止まらないっ♪」
2008-06-25,姫奴隷 第一幕 双子の麗姫を襲う魔調教の宴
2008-06-25,愛のカタチ scene2
2008-06-20,兄嫁はいじっぱり #02
2008-05-30,姫騎士リリア VOL.04 キリコの復讐
2008-05-30,連結方式 2nd.「SCHOOL」
2008-05-25,リゾートBOIN 第2話～南の島のハーレム編～
2008-05-25,妻しぼり 第一幕 奇妙な同棲性活
2008-05-23,あらいめんとゆーゆー THE ANIMATION Ghost.2「触手と二人の花子さん？」
2008-05-23,ストリンジェンド＆アッチェレランド ULTIMATUM ～SERA～ ＃1♪「シュガートレイン」
2008-05-09,失楽園 後編
2008-05-02,宇宙海賊サラ VOL.01 ギーレンの双子
2008-04-25,個人授業 ～THE ANIMATION～ Lesson.1「Starlet」
2008-04-25,凌辱ゲリラ狩り3 2nd「羞じらいの赤い軍服」
2008-04-25,淫妖蟲 蝕 ～凌触島退魔録～ 壱の巻
2008-04-18,兄嫁はいじっぱり #01
2008-04-18,春恋乙女 ～乙女の園で逢いましょう。～ 前編
2008-04-11,十二人の女教師 前編
2008-03-28,思春期少女 上巻「かりかり」
2008-03-28,[ピンクパイナップル] 花粉少女注意報！～THE ANIMATION～ ATTACK NO.1「みんなでエッチになっちゃえ☆やっちゃえ♪」
2008-03-25,借金姉妹 第二章 契約破棄する哀奴隷
2008-03-25,特別病棟 CAPSULE 2 悦楽の羞恥診療
2008-03-25,蕾の誘惑 ～淫乱少女たちの姫穴比べ～
2008-03-18,シオン Vol.01 残酷な魔法の天使
2008-03-07,館熟女 後編
2008-02-29,あらいめんとゆーゆー THE ANIMATION Ghost.1「丸いお尻がゆるせない☆」
2008-02-29,凌辱ゲリラ狩り3 1st.「躊躇いの白い軍服」
2008-02-29,特務捜査官レイ＆風子 vol.04 決着！？レイと黄龍
2008-02-25,おしえて Re：メイド  れっすん2
2008-02-25,愛のカタチ scene1
2008-02-22,大江戸四十八手 幕の参 傀儡女淫変始末
2008-02-08,失楽園 前編
2008-02-01,対魔忍アサギ Vol.03姉妹、相打つ！
2008-01-25,After… THE ANIMATION 第2章
2008-01-25,めがちゅ！ The Animation 第3話
2008-01-25,姫騎士アンジェリカ 第1夜 復讐されるプリンセス
2008-01-25,淫笑う看護婦 THE ANIMATION counseling.2「バカ双子（きょうだい）」
2008-01-25,連結方式 1st.「HOLD」
2008-01-11,辱妻 後編
2007-12-28,戦乙女スヴィア VOL.01 二人のヴァルキリー
2007-12-25,リゾートBOIN 第1話～南の島のバカンス編～
2007-12-25,新BibleBlack 最終章 Reproduction～再生～
2007-12-21,あねき…MY SWEET ELDER SISTER THE ANIMATION senior.2「悪戯天使たち」
2007-12-07,館熟女 前編
2007-11-30,装甲騎女イリス Vol.01 超空の降下作戦
2007-11-25,仕舞妻 ～姉妹妻3～ 第2夜「悶える欲望」
2007-11-25,特別病棟 CAPSULE 1 闇の臨床試験
2007-11-23,ちょいすじ Vol.2
2007-11-23,大江戸四十八手 幕の弐 京内憚り始末
2007-11-22,人妻コスプレ喫茶2 Menu.2「今日はエッチなコスプレDAY☆」
2007-11-09,相姦遊戯 後編
2007-11-08,pico ～ぼくの小さな夏物語～
2007-11-02,[071102][PIXY]奴隷メイドプリンセス VOL.02 姫は子宮でアクメする
2007-10-26,山姫の実 第一巻 M江
2007-10-26,淫笑う看護婦 THE ANIMATION counseling.1「S系眼鏡お姉様はお好き？」
2007-10-25,おしえて Re：メイド  れっすん1
2007-10-25,借金姉妹 第一章 奴隷誓約書
2007-10-25,電気夢想花 下巻
2007-10-12,辱妻 前編
2007-09-28,あねき…MY SWEET ELDER SISTER THE ANIMATION senior.1「早紀先輩」
2007-09-28,大江戸四十八手 幕の壱 新参女中惑乱始末
2007-09-28,姉☆孕みっくす VOL.04 瞳姉、受精す！
2007-09-28,満淫電車 調書2 「バージンロードはザーメンまみれ、安全日確認ヨシ！」
2007-09-28,[ANIMAC] 魔界天使ジブリール2 Vol.3 決戦！ジブリール VS ジブリール
2007-09-25,仕舞妻 ～姉妹妻3～ 第1夜「彷徨える肉体」
2007-09-25,連鎖病棟 Karte-2
2007-09-14,[バニラ] 一寸法師 後編
2007-08-31,対魔忍アサギ Vol.02姦獄のアリーナ
2007-08-31,放課後2 上巻 「羞じらう百合姫はムレて甘く」
2007-08-31,淫欲特急ゼツリンオー Station01 初体験！ゼツリンオー
2007-08-25,After… THE ANIMATION 第1章
2007-08-25,めがちゅ！ The Animation 第2話
2007-08-25,オフサイドガール 2
2007-08-24,MAGICAL WITCH ACADEMY LECTURE.2「触手で大パニック」
2007-08-24,Magicalもえ VOL.1
2007-08-24,人妻コスプレ喫茶2 Menu.1「恥ずかしいけど着てあげる♪」
2007-08-10,相姦遊戯 前編
2007-08-03,特務捜査官レイ＆風子 vol.03 裏切りの受精調教
2007-07-30,特務捜査官レイ＆風子 vol.02 白濁の戦士たち
2007-07-27,[ANIMAC] 魔界天使ジブリール2 Vol.2 純真！悩ましき恋心
2007-07-27,初犬 The Animation Act.2 「ストレンジ♡カインド オブ ウーマン#2」
2007-07-27,姉、ちゃんとしようよっ！第5話　姉ちゃんにうんと甘えてねの巻
2007-07-27,家庭教師のおねえさん 2
2007-07-27,[070727]炎の孕ませ転校生 第三話「孕ませ×21＝F組女子コンプリート」
2007-07-26,姉、ちゃんとしようよっ！第3話　柊家の秘密の巻
2007-07-25,めがちゅ！ The Animation 第1話
2007-07-25,妻とママとボイン 第2話
2007-07-25,英才狂育
2007-07-21,Grope ～闇の中の小鳥達～ 1st.「M～エム～」
2007-07-13,クラスメイトのお母さん 後編
2007-06-29,姫騎士リリア VOL.03 獣鬼の檻
2007-06-29,学園2 EPISODE 01 「ひにゃあっ！ミルクでちゃうのぉ」
2007-06-25,聖泉学淫
2007-06-25,連鎖病棟 Karte-1
2007-06-25,電気夢想花 上巻
2007-06-25,ドキドキ母娘レッスン ～教えて♪Hなお勉強～ 後編 いつまでも家庭教師
2007-06-22,MAGICAL WITCH ACADEMY LECTURE.1「魔法学園はハーレム？」
2007-06-22,ちょいすじ Vol.1
2007-06-22,下級生2～Sketchbook～ Page.2「Face」
2007-06-08,[バニラ] 一寸法師 前編
2007-06-01,[070601][PIXY]奴隷メイドプリンセス VOL.01 調教開始
2007-05-25,下級生2～Sketchbook～ Page.1「Dress」
2007-05-25,初犬 The Animation Act.1 「ストレンジ♡カインド オブ ウーマン#1」
2007-05-25,姉、ちゃんとしようよっ！第4話　愛と罵倒の日々の巻
2007-05-25,戦乙女ヴァルキリー 真章 第二話 「堕ちた女神の散華」
2007-05-25,[Milky] 洗濯屋しんちゃん 第2話
2007-05-25,通勤快楽 痴漢でGO！！
2007-05-25,[ANIMAC] 魔界天使ジブリール2 Vol.1 誕生！新ジブリール
2007-05-11,辱アナ 後編
2007-04-27,アッチェレランド ～堕天使たちの囁き～ CONTENTS.2「in the school」
2007-04-27,姉☆孕みっくす Vol.03 姉の子宮を堕とせ！
2007-04-27,家庭教師のおねえさん 1
2007-04-27,淫堕の姫騎士ジャンヌ Scene2.「晒されたボテ腹王女」
2007-04-25,オフサイドガール 1
2007-04-25,ドキドキ母娘レッスン ～教えて♪Hなお勉強～ 前編 初めての家庭教師
2007-04-25,艶欲 ～微熱～
2007-04-19,ぴことちこ シリーズぴこ2
2007-04-13,クラスメイトのお母さん 前編
2007-03-30,[070330]炎の孕ませ転校生 第二話「子宮に届けよ!! 野望の種!!」
2007-03-25,肉嫁 高柳家の人々 其の四 「性獄の終焉、饗宴の幕開け」
2007-03-25,解放区
2007-03-23,姉汁 1 ～白川三姉妹におまかせ～ Juice.2「お姉さんにもしてほ・し・い♪」
2007-03-19,奥様は魔法使い 後編
2007-03-02,対魔忍アサギ Vol.01逆襲の朧
2007-02-25,ふたりの兄嫁 第二章 完結編
2007-02-25,[Milky] 洗濯屋しんちゃん 第1話
2007-02-23,ジオグラマトン ACT-2 決戦！新宿中央公園
2007-02-23,癒してあげルン 西遊記
2007-02-09,辱アナ 前編
2007-01-26,アッチェレランド ～堕天使たちの囁き～ CONTENTS.1「in the cafe」
2007-01-26,淫堕の姫騎士ジャンヌ Scene1. 「孕まされた守護天使」
2007-01-25,ミセスジャンキー ボリューム2 完結編
2007-01-25,妻とママとボイン 第1話
2007-01-25,肉嫁 高柳家の人々 其の三 「禁断の扉」
2007-01-12,痴漢物語 後編
2006-12-29,姉☆孕みっくす Vol.02 孕ませ1週間始まる！
2006-12-25,ジオグラマトン ACT-1 燃える！お台場
2006-12-25,新BibleBlack 第5章 Rejection～拒絶～
2006-12-25,聖肛女 ～背徳の美臀奴隷～ 第二章 聖なる懺悔 完結編
2006-12-25,背徳妻 第二巻～仮面の真実～
2006-12-22,姉汁 1 ～白川三姉妹におまかせ～ Juice.1「お姉さんがしてあ・げ・る♪」
2006-12-22,魔が堕ちる夜 第三章 敗北者の淫辱
2006-12-22,魔法少女 沙枝 第二話「十四人目の魔法少女」
2006-12-21,アニメ 八神優
2006-12-08,奥様は魔法使い 前編
2006-12-01,姫騎士リリア VOL.02 恥辱の輪姦刑
2006-11-25,MILKジャンキー 姉妹編 ボリューム4
2006-11-25,姦獄～淫辱の実験棟～ LEVEL-2
2006-11-10,医辱 後編
2006-10-31,淫妖蟲 THE ANIMATION 恥録一「排泄」
2006-10-27,特務捜査官レイ＆風子 vol.01 家畜たちの檻
2006-10-27,魔が堕ちる夜 第二章 淫らな水師
2006-10-27,[061027]炎の孕ませ転校生 第一話「俺様の子種を受け入れろ!!」
2006-10-25,女系家族 ～淫謀～ 第二章
2006-10-25,義母の吐息 第2話 ～背徳心に漂う母の色香～
2006-10-13,どんぶり家族 後編
2006-09-26,花と蛇 The animation 第3章「終わりなき」
2006-09-25,燐月 リンゲツ THE ANIMATION 第三話
2006-09-25,クライミライ scene2 生け贅たちの…現在。
2006-09-08,義妹×2
2006-09-07,ぼくのぴこ シリーズぴこ1
2006-09-01,姉☆孕みっくす Vol.01 死神娘がやってきた！
2006-08-25,Innocent Blue カルテ2 「最愛の妹は謀り頃、処女 祐美（Sサイズ）」
2006-08-25,MILKジャンキー 姉妹編 ボリューム3
2006-08-25,アニメ 風間愛
2006-08-25,女系家族 ～淫謀～ 第一章
2006-08-25,新・脅迫2 THE ANIMATION ～傷に咲く花 鮮血の紅～ SCENE.2「リフレーン」
2006-08-25,燐月 リンゲツ THE ANIMATION 第二話
2006-08-25,魔が堕ちる夜 第一章 デーモニックプリンセス
2006-08-24,花と蛇 The Animation 第2章「恥辱の檻」
2006-08-11,キニナル キモチ Vol.4「夕暮れ給湯室」
2006-08-11,痴漢物語 前編
2006-08-06,そらのいろ、みずのいろ 上巻「ダメ・・・聞こえちゃう」
2006-07-25,凌辱人妻温泉 弐の湯
2006-07-25,姉とボイン Vol.2
2006-07-25,燐月 リンゲツ THE ANIMATION 第一話
2006-07-21,花と蛇 The Animation 第1章「麗しき無残花」.
2006-07-14,医辱 前編
2006-06-25,ふたりの兄嫁 第一章
2006-06-25,アキバ系彼女 さーくる 3
2006-06-23,CLEAVAGE クレイヴィジ Episode2 「沙夜香」
2006-06-23,下級生2～季花詞集 Anthology ～ 第二節「ブバルディア ～情熱～」
2006-06-09,どんぶり家族 前編
2006-06-02,姫騎士リリア VOL.01 姫騎士、囚わる！
2006-05-26,新・脅迫2 THE ANIMATION ～傷に咲く花 鮮血の紅～ SCENE.1「フェイク」
2006-05-25,カンブリアン last stage 増殖する淫獣
2006-05-25,義母の吐息 第1話 ～背徳心に漂う母の色香～
2006-05-12,透明人間 後編
2006-04-28,ストリンジェンド ～エンジェルたちのプライベートレッスン～ MY BLOW JOBER ACT.2
2006-04-28,死妹人形
2006-04-28,魔法少女 沙枝 第一話「魔法少女はじめます」
2006-04-25,BibleBlack オンリー版 VOL.2 由起子編・佐伯編・高城編
2006-04-25,聖肛女 ～背徳の美臀奴隷～ 第一章 聖なる契約書
2006-04-21,姉、ちゃんとしようよっ！第2話　姉ちゃんよ永遠にの巻
2006-04-14,[ミューズ] 人妻かすみさん 後編　確かめ合う気持ち
2006-04-14,義妹
2006-03-25,姦獄～淫辱の実験棟～ LEVEL-1
2006-03-25,東京鎮魂歌（レクイエム） 最終幕 淫性の宿命
2006-03-24,下級生2～季花詞集 Anthology ～ 第一節「トードリリー ～秘密～」
2006-03-10,処女オークション 落札編
2006-02-25,ミセスジャンキー ボリューム1
2006-02-25,気になるルームメイト room.2
2006-02-24,CLEAVAGE クレイヴィジ Episode1 「瑛里華」
2006-02-24,戦乙女ヴァルキリー 真章 第一話 「天使、堕ちる夜」
2006-02-24,流聖天使 プリマヴェール
2006-02-10,透明人間 前編
2006-01-27,ストリンジェンド ～エンジェルたちのプライベートレッスン～ MY BLOW JOBER ACT.1
2006-01-27,夜勤病棟・三 Experiment.3
2006-01-27,夜勤病棟・二 ope：05
2006-01-25,boin レクチャー2
2006-01-25,クライミライ scene1 淫慘なる過去
2006-01-13,痴母 後編
2006-01-01,All Sex Hentai 1
2006-01-01,All Sex Hentai 2
2006-01-01,All Sex Hentai 3
2006-01-01,All Sex Hentai 4
2005-12-25,姉とボイン Vol.1
2005-12-25,背徳妻 第一巻～秘められた性～
2005-12-24,アニメ 七瀬恋
2005-12-23,TRUE BLUE 外伝「わたしの大事に守ってきたもの、捧げます」
2005-12-22,緋忍伝 呀宇種(ガウス) 朧月の章
2005-12-09,[ミューズ] 人妻かすみさん 前編　過ちの夜
2005-12-09,処女オークション 出品編
2005-11-25,Innocent Blue カルテ1 「憧れの従姉は孕み頃、新妻 希美（B93）」
2005-11-25,MAID iN HEAVEN SuperS 2 奉仕する！する！編
2005-11-25,カンブリアン 1st stage 淫獣の感染
2005-11-25,夜勤病棟 Kranke 七瀬 恋
2005-11-25,姉、ちゃんとしようよっ！第1話　空也故郷へ帰るの巻
2005-11-25,肉嫁 高柳家の人々 其の二 「満開の蒸肉」
2005-11-25,艶母 taboo-6 ～禁忌の喘ぎ、背徳の泪～
2005-11-18,淫娘 Episode.3 「最愛の人」
2005-11-18,淫母 Episode.3 「新たなる劣情」
2005-11-11,大失禁ヘレナ 後編
2005-10-28,MAID iN HEAVEN SuperS 1 調教して！して！編
2005-10-28,夜勤病棟・三 Experiment.2
2005-10-28,淫娘 Episode.2 「性欲の代償」
2005-10-28,淫母 Episode.2 「止められない劣情」
2005-10-25,凌辱人妻温泉 壱の湯
2005-10-25,新BibleBlack 第4章 Recollection～想起～
2005-10-21,夜勤病棟・二 ope：04
2005-10-14,痴母 前編
2005-09-30,人妻×人妻つまつま ぱ～と2 ここは新妻ぱらだいす！
2005-09-30,新体操（真） etude.2
2005-09-25,双子ノ母性本能 第二章 悦楽の協奏曲
2005-09-25,放課後 ～濡れた制服～ 課外授業3
2005-09-25,放課後 ～濡れた制服～課外授業3
2005-09-25,気になるルームメイト room.1
2005-09-22,Theガッツ！ VOL.2
2005-09-09,[ミューズ] エンジェルブレイド パニッシュ！3
2005-09-09,集団痴漢電車 後編
2005-08-26,IMMORAL 下巻 「校内調教のススメ」
2005-08-26,夜勤病棟 Kranke 児玉あい
2005-08-25,boin レクチャー1
2005-08-25,肉嫁 高柳家の人々 其の一 「性獄の屋敷」
2005-08-25,魔法少女アイ Vol.5 「魔法少女-愛-」
2005-08-12,大失禁ヘレナ 前編
2005-08-05,輪奸学園 上巻 「処女と熟妻の操を踏みにじれ！」
2005-07-29,もけもけ大正電動娘 ARISA 第弐話
2005-07-29,人妻×人妻つまつま ぱ～と1 ここは人妻まーけっと！
2005-07-29,夜勤病棟・三 Experiment.1
2005-07-29,淫娘 Episode.1 「異常な愛情」
2005-07-29,淫母 Episode.1 「熟女の色香」
2005-07-29,雪夜一夜物語 第三夜「愛辱の花嫁」
2005-07-25,BibleBlack オンリー版 VOL.1 高城寛子編・伊藤＆水泳部編・佐伯編
2005-07-25,REQUIEM 第二章
2005-07-22,鬼作 魂 復帰第三発「はぐれ鬼畜純情派」
2005-07-08,悪戯～いたずら～ THE ANIMATION 二両目
2005-07-08,爆乳姉妹 後編
2005-06-25,MILKジャンキー 姉妹編 ボリューム2
2005-06-25,REQUIEM 第一章
2005-06-25,艶母 taboo-5 ～ふしだらな義母～
2005-06-24,新体操（真） etude.1
2005-06-24,黒愛 ～一夜妻館・淫口乱乳録～第2巻「異常性欲人妻 射精地獄の宴」
2005-06-24,[ANIMAC] 魔界天使ジブリール Vol.4 戦慄！血のイニシエイション
2005-06-13,女スパイ拷問～敵の基地は女体拷問所～
2005-06-10,集団痴漢電車 前編
2005-05-27,DISCODE 異常性愛 Part-3
2005-05-27,もけもけ大正電動娘 ARISA 第壱話
2005-05-27,夜勤病棟 Kranke 児玉ひかる
2005-05-27,大悪司 番外編 「殺繚乱」
2005-05-27,満淫電車 調書1 「巨乳エリートOL、出発淫行」
2005-05-25,人妻凌辱参観日 第二話　お受験する人妻
2005-05-25,双子ノ母性本能 第一章 欲望の二重奏
2005-05-25,新・最終痴漢電車 Rail-3
2005-05-13,[ミューズ] エンジェルブレイド パニッシュ！2
2005-05-13,継母 後編
2005-04-29,IMMORAL 上巻 「ワイセツ教師のススメ」
2005-04-29,夜勤病棟・二 ope：03
2005-04-29,黒愛 ～一夜妻館・淫口乱乳録～第1巻「ザードル奴隷処女　孕ませの宴」
2005-04-25,放課後 ～濡れた制服～ 課外授業2
2005-04-25,放課後 ～濡れた制服～課外授業2
2005-04-25,東京鎮魂歌（レクイエム） 第一話 淫性の処術
2005-04-25,艶母 taboo-4 ～熟れ肉くらべ～
2005-04-08,悪戯～いたずら～ THE ANIMATION 一両目
2005-04-08,爆乳姉妹 前編
2005-03-25,新BibleBlack 第3章 rule～支配～
2005-03-25,Maple Colors 第二幕 青春H編
2005-03-25,MILKジャンキー 姉妹編 ボリューム1
2005-03-25,TRUE BLUE 下巻 「赤ちゃんできてもいいから」
2005-03-25,[ANIMAC] 魔界天使ジブリール Vol.3 魅惑！魔性のささやき
2005-03-11,めじょく～復讐学園～ 後編
2005-03-10,フロントイノセント VOL.1
2005-02-25,Theガッツ！ VOL.1
2005-02-25,TRUE BLUE 上巻 「先生の方が…太いの」
2005-02-25,パンチラティーチャー2
2005-02-25,ファミレス戦士プリン Order3
2005-02-25,人妻凌辱参観日 第一話　お遊戯する人妻
2005-02-25,大悪司 6発目 「大団円」
2005-02-25,魔法少女アイ Vol.4 「魔法少女狂乱 」
2005-02-11,継母 前編
2005-01-28,戦乙女ヴァルキリー 第二夜 「女神隷属」
2005-01-28,[ANIMAC] 魔界天使ジブリール Vol.2 特訓！愛あればこそ
2005-01-25,V.G.NEO VOL.3
2005-01-25,優遇接待 孤島の極楽へようこそ scene-2 「お願い…見逃してください…」
2005-01-25,放課後 ～濡れた制服～ 課外授業1
2005-01-25,放課後 ～濡れた制服～課外授業1
2005-01-14,兄嫁 後編
2004-12-29,[ミューズ] エンジェルブレイド パニッシュ！1
2004-12-25,BLACK GATE ブラックゲート 姦淫学園 gate2「陰の使徒」
2004-12-25,Maple Colors 第一幕 Hな激闘編
2004-12-25,艶母 taboo-3 ～よがり泣き～
2004-12-24,姫辱 プリンセスダブル狩り 第三章「姫君！！姦落」
2004-12-24,影Shadow 其ノ四 流転
2004-12-24,戦乙女ヴァルキリー 第一夜 「女神捕獲」
2004-12-22,キニナル キモチ Vol.3「痴漢ブラ」
2004-12-17,DISCIPLINE ～第6章 最終章～
2004-12-10,DISCODE 異常性愛 Part-2
2004-12-10,めじょく～復讐学園～ 前編
2004-11-26,パンチラティーチャー1
2004-11-26,夜勤病棟・二 ope：02
2004-11-26,大悪司 5発目 「エデン」
2004-11-26,雪夜一夜物語 第二夜「女痴武者」
2004-11-26,[ANIMAC] 魔界天使ジブリール Vol.1 変身！ジブリール
2004-11-25,ANGELIUM アンジェリウム 2
2004-11-25,喪失郷 其の壱 淫鬼な寒村
2004-11-25,新・最終痴漢電車 Rail-2
2004-11-25,淫の方程式 第二話 陵辱の宴
2004-11-22,詩乃先生の誘惑授業  一時間目原子の結合
2004-11-12,羞中恥療室 後編
2004-10-29,刻音色 ～二の刻～
2004-10-29,姫辱 プリンセスダブル狩り 第二章「姫君！！調教」
2004-10-25,IZUMO 5ノ巻 緋色の邂逅
2004-10-25,新BibleBlack 第2章 Reunion～再会～
2004-10-25,新人ツアーコンダクター里奈 ツアーオプション⇔添乗員、強制乱交
2004-10-25,未亡人 ～ぬめり合う肉欲と淫らに濡れる蜜壺～ 第2章 淫辱の遺産
2004-10-08,兄嫁 前編
2004-09-26,影Shadow 其ノ参 抜け忍
2004-09-26,相姦連鎖
2004-09-25,ANGELIUM アンジェリウム 1
2004-09-25,アキバ系彼女 さーくる 2
2004-09-25,痴漢者トーマス 痴漢道その一
2004-09-25,股人タクシー 獲物5 ナース狩り・奈々美
2004-09-24,御神楽探偵団 -活動写真- 第三幕
2004-09-24,愛姉妹・蕾 …汚してください 第二章 「花園の蹂躙される刻…」
2004-09-24,花の女子アナ ニュースキャスター・悦子 生でイキます！ TAKE 2
2004-09-10,爆乳母娘 第壱章
2004-09-10,爆乳母娘 第弐章
2004-08-27,大悪司 4発目 「那古神」
2004-08-27,姫辱 プリンセスダブル狩り 第一章「姫君！！凌辱」
2004-08-27,真版女神探偵 VINUS FILE－後編－
2004-08-27,鬼作 魂 復帰第二発「渡る世間は鬼畜ばかり」
2004-08-27,魔法戦士 スイートナイツ ～ヒロイン凌辱指令～ 2
2004-08-27,河原崎家の一族2 惨の四 陰惨なる螺旋
2004-08-25,ファミレス戦士プリン Order2
2004-08-25,人妻コスプレ喫茶 VOL.2
2004-08-25,新・最終痴漢電車 Rail-1
2004-08-25,魔法少女アイ Vol.3 「魔法少女覚醒」
2004-08-20,DISCIPLINE ～第5章 潜入～
2004-08-13,DISCODE 異常性愛 Part-1
2004-08-13,羞中恥療室 前編
2004-07-30,刻音色 ～一の刻～
2004-07-30,夜勤病棟・二 ope：01
2004-07-25,BLACK GATE ブラックゲート 姦淫学園 gate1「禁断の門」
2004-07-25,IZUMO 4ノ巻 翡翠の誘惑
2004-07-25,優遇接待 孤島の極楽へようこそ scene-1 「楽しい水泳合宿になるはずだったのに…」
2004-07-23,BLIND NIGHT 03 終焉
2004-07-23,キニナル キモチ Vol.2「箱詰め奥さん」
2004-07-23,妖香の剣 弐の巻
2004-07-23,河原崎家の一族2 惨の三 淫虐の迷宮
2004-07-23,顔のない月 第5夜「彼岸花」
2004-07-09,乳母 第弐章
2004-07-08,痴漢十人隊 THE ANIMATION 1 ～獲物たちの黄昏～
2004-07-08,痴漢十人隊 THE ANIMATION 2 ～痴漢十人隊見参！！～
2004-07-08,痴漢十人隊 THE ANIMATION 3 ～狩人の傷痕～
2004-07-08,痴漢十人隊 THE ANIMATION 4 ～Woman only～
2004-07-08,痴漢十人隊 THE ANIMATION 5 ～本番依頼～
2004-06-25,G.T.R4
2004-06-25,V.G.NEO Vol.2
2004-06-25,アキバ系彼女 さーくる 1
2004-06-25,影Shadow 其ノ弐 獣道
2004-06-25,御神楽探偵団 -活動写真- 第二幕
2004-06-25,愛姉妹・蕾 …汚してください 第一章 「秋桜の緊縛される刻」
2004-06-25,未亡人 ～ぬめり合う肉欲と淫らに濡れる蜜壺～ 第1章 淫靡なる相続
2004-06-25,花の女子アナ ニュースキャスター・悦子 生でイキます！ TAKE 1
2004-06-11,爆乳母娘 第壱章
2004-06-11,爆乳母娘 第弐章
2004-05-28,ONE～輝く季節へ～ True Stories EPISODE 3
2004-05-28,SINKAN シンカン
2004-05-28,グリーングリーン エロリュージョンズ
2004-05-28,[ピンクパイナップル] 制服処女 THE ANIMATION collection.2
2004-05-28,大悪司 3発目 「アシヤ制圧」
2004-05-28,妖香の剣 壱の巻
2004-05-28,鬼作 魂 復帰第一発「伊頭家の食卓」
2004-05-28,魔性の貌（かお） 第一話「虜」
2004-05-25,Princess Holiday ～転がるりんご亭千夜一夜～ 第二話
2004-05-25,Tower of Etruria VOL.2 ～性欲に溺れた妖精～
2004-05-25,くノ一 幕末奇譚 ～巻の弐～
2004-05-25,ファミレス戦士プリン Order1
2004-05-21,HEARTWORK JUNCTION 03「禁忌」
2004-05-21,女教師 ～肉体授業～ 下巻
2004-05-07,懲罰予備校 後編
2004-04-30,夜勤病棟 Karte.10.5 特別実験記録集 持ち出し厳禁
2004-04-30,旅館白鷺 二泊目
2004-04-29,キニナル キモチ Vol.1「妄想エレベーター」
2004-04-25,初恋 第二話 約束
2004-04-25,新BibleBlack 第1章 Revival～復活～
2004-04-25,水夏 ～SUIKA～ 真夏の贈り物
2004-04-25,艶母 taboo-2 ～ハメられた人妻～
2004-04-23,DISCIPLINE ～第4章 戒律～
2004-04-23,SEXFRIEND ～セックスフレンド～ sex.2
2004-04-23,魔法戦士 スイートナイツ ～ヒロイン凌辱指令～ 1
2004-04-20,女教師 ～肉体授業～ 上巻
2004-04-16,自慰倒錯 Vol.2 ～破滅への快楽～
2004-04-09,乳母 第壱章
2004-03-26,PIGEON BLOOD 2nd Training
2004-03-26,影Shadow 其ノ壱 闇の掟
2004-03-26,御神楽探偵団 -活動写真- 第一幕
2004-03-26,河原崎家の一族2 惨の二 死への誘い
2004-03-25,Princess Holiday ～転がるりんご亭千夜一夜～ 第一話
2004-03-25,人妻コスプレ喫茶 VOL.1
2004-03-25,妹汁 二番しぼり
2004-03-25,淫の方程式 第一話 夜の獣
2004-03-25,肉体転移 第二章
2004-03-18,雪夜一夜物語 第一夜「盗人」
2004-03-12,閉鎖病院 後編
2004-02-27,ONE～輝く季節へ～ True Stories EPISODE 2
2004-02-27,[ピンクパイナップル] 制服処女 THE ANIMATION collection.1
2004-02-27,微熱っ娘～b37℃～ FEVER.2「お熱いのはいかが？」
2004-02-27,真版女神探偵 VINUS FILE－前編－
2004-02-26,ランジェリーズ Office3 ～愛奴の玲奈～
2004-02-26,大悪司 2発目 「悪司組誕生」
2004-02-25,V.G.NEO Vol.1
2004-02-25,初恋 第一話 告白
2004-02-25,学艶七不思議 怪ノ弐
2004-02-13,懲罰予備校 前編
2004-01-30,夜勤病棟 Karte.10
2004-01-25,DARCROWS 第二幕 暗流
2004-01-25,カナリヤは籠の中 拘束・Cage-2
2004-01-25,魔法少女アイ Vol.2 「魔法少女散ル」
2004-01-23,HEARTWORK JUNCTION 02「邂逅」
2004-01-23,エルフィーナ ～淫夜へと売られた王国で…～ 第三幕 「白の姫花・黒の姫花」
2004-01-23,河原崎家の一族2 惨の一 生贄たちの戯れ
2004-01-23,肢体を洗う CASE.3「性薬」
2004-01-22,SEXFRIEND ～セックスフレンド～ sex.1
2004-01-09,凌辱の連鎖 後編
2003-12-26,夜勤病棟 Karte.9
2003-12-25,Maids in Dream メイド イン ドリーム 第二話 『メイド達のいる風景』
2003-12-25,くノ一 幕末奇譚 ～巻の壱～
2003-12-25,陰陽師 ～妖艶絵巻～ 第弐話
2003-12-21,肉体転移 第一章
2003-12-20,零媚耶（レビヤ）  ～淫靡なる女神の覚醒～
2003-12-19,DISCIPLINE ～第3章 陵罪～
2003-12-19,放課後マニア倶楽部 -濃いの欲しいの- THE ANIMATION collection.2 「マニア道に出口なし！」
2003-12-12,閉鎖病院 前編
2003-11-28,PIGEON BLOOD 1st Training
2003-11-28,凌辱女子学園 ～後編～
2003-11-28,微熱っ娘～b37℃～ FEVER.1「奴隷と言う名の恋人」
2003-11-27,大悪司 1発目 「悪司帰還」
2003-11-25,人形の館 Doll-2 ～メイドを狂わす淫律のタクト～
2003-11-25,妹汁 一番しぼり
2003-11-25,艶母 taboo-1 ～満たされぬ人妻～
2003-11-21,ONE～輝く季節へ～ True Stories EPISODE 1
2003-11-21,[CherryLips] 女狼狂濡（めがみきょうじゅ） 濡婦（ウルフ）編
2003-11-14,女教師・裕美の放課後 後編
2003-10-31,誘惑 終電の章
2003-10-25,DARCROWS 第一幕 策動
2003-10-25,カナリヤは籠の中 監禁・Cage-1
2003-10-25,キャッスルファンタジア ～聖魔大戦～ 第三章
2003-10-25,奈美SOS！ ファースト・バトル
2003-10-25,学艶七不思議 怪ノ壱
2003-10-24,HEARTWORK JUNCTION 01「焦燥」
2003-10-24,MASARU あしたの雪之丞2 第二章 「青の復活」
2003-10-24,エルフィーナ ～淫夜へと売られた王国で…～ 第二幕 「羞恥に染まる大輪の姫花」
2003-10-23,ランジェリーズ Office2 ～敏欲の千沙～
2003-10-10,特別授業2 後編
2003-09-26,エーベンブルグの風 第二章 裏切りと嫉妬の海へ
2003-09-26,百鬼 三ノ鬼 若葉
2003-09-26,肢体を洗う CASE.2「性魔」
2003-09-25,VIPER -GTS- ～悪魔娼天編～
2003-09-25,ダーク・シェル　檻の中の艶 第二話 すすり泣く肌
2003-09-25,妹でいこう！ 第2話 「ありがとう…おにいちゃん」
2003-09-25,恥辱診察室診察2「母と娘のフルコース(おかわり自由)」
2003-09-25,螢子 第三夜 「淫」
2003-09-25,陰陽師 ～妖艶絵巻～ 第壱話
2003-09-12,凌辱の連鎖 前編
2003-09-12,水晶の夜 ～蒼い告白より～
2003-08-29,夜勤病棟 Karte.8
2003-08-28,大悪司 0 ～前戯のススメ～
2003-08-27,[CherryLips] 女狼狂濡（めがみきょうじゅ） 妄獣編
2003-08-25,IZUMO 3ノ巻 琥珀の追憶
2003-08-25,Milkyway その2 ｢きもちは止まらないよ｣
2003-08-25,女教師 三時限目・化学科　「ケダモノたちの実験器具」
2003-08-25,魔法少女アイ VOl.1 「魔法少女ハ独リ」
2003-08-25,～もみじ～ 第4巻 落つることのないもみじ
2003-08-22,DISCIPLINE ～第2章 監禁～
2003-08-22,flutter of birdsII ～天使たちの翼～ 後編「運命の章」
2003-08-22,エルフィーナ ～淫夜へと売られた王国で…～ 第一幕 「踏みにじられた純白の姫花」
2003-08-22,ボンデージ・ゲーム ～深窓の隷嬢達～ game.2 「YAYOI ～恥乳の奴隷淑女～」
2003-08-22,[ピンクパイナップル] 妻みぐい THE ANIMATION chance.2 「わたしと恋、してみる？」
2003-08-22,新体操（仮）～妖精たちの輪舞曲～ デジタルリマスター版 Lesson4「狂艶乱舞のラストステージ」
2003-08-20,素人倶楽部ハメ撮りアニメ完全無修正!!
2003-08-08,女教師・裕美の放課後 前編
2003-07-25,BLIND NIGHT 02 性獣
2003-07-25,Maids in Dream メイド イン ドリーム 第一話 『ようこそご主人様』
2003-07-25,MASARU あしたの雪之丞2 第一章 「赤い記憶」
2003-07-25,Private Emotion 第二章「夢の終わりに…」
2003-07-25,VIPER -GTS- ～悪魔交輪編～
2003-07-25,エーベンブルグの風 第一章 愛欲の大地
2003-07-25,キャッスルファンタジア ～聖魔大戦～ 第二章
2003-07-25,人形の館 Doll-1 ～淫夢に抱かれたメイドたち～
2003-07-25,奴隷介護 ～快楽その3～苦悶の誘い声
2003-07-25,放課後マニア倶楽部 -濃いの欲しいの- THE ANIMATION collection.1 「雛子と倫子とM（マゾ）のLesson」
2003-07-25,淫縛学艶 第三縛 乱痴気祭り
2003-07-25,誘惑 始発の章
2003-07-24,Natural2 -DUO-第4話「日奈美」
2003-07-24,ランジェリーズ Office1 ～性隷の有栖～
2003-07-11,学園の狩猟者 後編
2003-06-27,[ピンクパイナップル] 妻みぐい THE ANIMATION chance.0 「わたしをcheckしてみる？」
2003-06-27,Darling Page.3
2003-06-27,女教師二十三歳 後編
2003-06-27,[ピンクパイナップル] 妻みぐい THE ANIMATION chance.1 「わたしとえっち、してみる？」
2003-06-27,旅館白鷺 一泊目
2003-06-27,百鬼 二ノ鬼 井柳祥子
2003-06-27,肢体を洗う CASE.1「性死」
2003-06-26,妹でいこう！ 第1話 「妹なんだもん」
2003-06-25,BibleBlack 第6章 黒の降臨
2003-06-25,Milkyway その1 ｢浮気してもええよ｣
2003-06-25,Tower of Etruria VOL.1 ～妖艶の魔術師～
2003-06-25,ダーク・シェル　檻の中の艶 第一話 エデンを失う時
2003-06-25,月陽炎 第三夜祭りの夜
2003-06-25,水夏 ～SUIKA～ 第三話「名無し」
2003-06-20,レズ病棟2  ～調教夜～
2003-06-13,特別授業2 前編
2003-06-13,顔のない月 第4夜「白百合」
2003-05-30,清純看護学院 新人ナース「祐未」恥虐の看護実習 ～3時姦目～
2003-05-30,百舌鳥ノ贄
2003-05-25,IZUMO 2ノ巻 朱の殉情
2003-05-25,恥辱診察室診察1「金づるをつかめ！」
2003-05-25,気分2 にほんめ
2003-05-25,～もみじ～ 第3巻 芽吹きはじめた若葉たち
2003-05-23,flutter of birdsII ～天使たちの翼～ 前編「追憶の章」
2003-05-23,あしたの雪之丞 Round.4 彷徨える魂
2003-05-23,愛姉妹2 ～二人の果実～ 第二夜 「交錯する姉妹愛」
2003-05-23,隷嬢キャスター ～淫虐の罠～
2003-05-22,[GREEN BUNNY] 幻夢館 愛欲と凌辱の淫罪 下巻
2003-05-22,螢子 第二夜 「辱」
2003-05-18,女神探偵 VINUS FILE FILE 01
2003-05-09,痴漢電車 後編
2003-04-25,ANGEL CORE～天使たちの住処～ 下巻
2003-04-25,Darling Page.2
2003-04-25,キャッスルファンタジア ～聖魔大戦～ 第一章
2003-04-25,ボンデージ・ゲーム ～深窓の隷嬢達～ game.1 「YUU ～憂 肛虐のメス奴隷～」
2003-04-25,凌辱女子学園 ～前編～
2003-04-25,夜勤病棟 Karte.7
2003-04-25,奴隷介護 ～快楽その2～苦悶の誘い声
2003-04-25,新体操（仮）～妖精たちの輪舞曲～ デジタルリマスター版 Lesson3「ヴァージン輪舞曲」
2003-04-25,水夏 ～SUIKA～ 第二話「伊月 」
2003-04-25,股人タクシー 獲物4 狩られたチアガール・ユキ
2003-04-25,臭作～Liberty～ 後編　解禁「高部絵里」
2003-04-24,G-taste 真行寺由奈FINAL
2003-04-11,DISCIPLINE ～第1章 序章～
2003-04-11,[バニラ] エンジェルブレイド 3
2003-04-11,性裁 後編
2003-03-28,あしたの雪之丞 Round.3 旅立ちの冬
2003-03-28,それゆけまりんちゃん PROJECT.3「決戦!究極奉仕VS極楽奉仕」
2003-03-28,夜勤病棟 Karte.5.5 比良坂竜二特別実験記録集
2003-03-28,清純看護学院 新人ナース「祐未」恥虐の看護実習 ～2時姦目～
2003-03-28,犠母妹 弐「背徳の饗艶」
2003-03-28,百鬼 一ノ鬼 鈴木宏美
2003-03-28,超昂天使エスカレイヤー 第3話 カウンターアタック
2003-03-28,鬼作 第6発「社長令嬢は誕生ぱ～てぃで追いこめ！ 後編」
2003-03-28,黒姫 桎梏の館 後編
2003-03-25,Private Emotion 第一章「女教師‧沙也香と…」
2003-03-25,失格医師 二号室 新人ナースの事件簿
2003-03-25,女教師 二時限目・数学科　「恥辱×悦楽＝肉欲の餌食」
2003-03-21,[GREEN BUNNY] 幻夢館 愛欲と凌辱の淫罪 上巻
2003-03-18,堕落 女教師破壊 ～下巻～
2003-03-14,学園の狩猟者 前編
2003-03-06,レズ病棟1  ～涼華女学園附属病院～
2003-02-28,Darling Page.1
2003-02-28,G.T.R3
2003-02-28,少女遊戯
2003-02-28,愛姉妹2 ～二人の果実～ 第一夜 「帰ってきた偏愛の父」
2003-02-25,まじかるカナン SP どきどき◆サマーキャンプ！ 前編
2003-02-25,まじかるカナン SP どきどき◆サマーキャンプ！ 後編
2003-02-25,最終痴漢電車 Rail-3
2003-02-25,気分2 いっぽんめ
2003-02-25,水夏 ～SUIKA～ 第一話「さやか」
2003-02-25,蒼い告白 ～実録 縛られたアイドル～
2003-02-21,夜が来る！ 第4夜 幽の月
2003-02-21,螢子 第一夜 「凌」
2003-02-14,痴漢電車 前編
2003-01-31,夜勤病棟 Karte.6
2003-01-25,ANGEL CORE～天使たちの住処～ 上巻
2003-01-25,IZUMO 1ノ巻 藍の勾玉
2003-01-25,失格医師 一号室 ナースのおシゴキ
2003-01-25,淫縛学艶 第二縛 制服を脱がさないで…
2003-01-24,女教師二十三歳 前編
2003-01-24,奴隷介護 ～快楽その1～苦悶の誘い声
2003-01-24,新体操（仮）～妖精たちの輪舞曲～ デジタルリマスター版 Lesson2「レオタードの花園」
2003-01-24,臭作～Liberty～ 前編「狙われた理性のフェティシズム」
2003-01-18,堕落 女教師破壊 ～中巻～
2003-01-18,悲花陵辱 罠にはまった義兄妹（ふたり）
2003-01-10,BAD END 贖罪の教室 後編
2003-01-10,性裁 前編
2002-12-27,Unbalance アンバランス MENU.3
2002-12-27,隷従学園 下姦
2002-12-27,顔のない月 第3夜「芍薬」
2002-12-26,淫魔の幻影3 妖精の悲劇
2002-12-25,BibleBlack 第5章 黒の晩餐
2002-12-25,女教師 一時限目・社会科　「泣かぬなら　犯してしまえ　ホトトギス」
2002-12-25,月陽炎 第二夜 覚醒の夜
2002-12-24,VIPER -GTS- ～悪魔召姦編～
2002-12-22,淫魔の幻影2 淫妖の果汁
2002-12-21,椿色のプリジオーネ 第3幕 ～そして…夏椿～
2002-12-20,あしたの雪之丞 Round.2 失われた日々
2002-12-20,超昂天使エスカレイヤー 第2話 ダイラストからの刺客!
2002-12-20,鬼作 第5発「社長令嬢は誕生ぱ～てぃで追いこめ！ 前編」
2002-12-20,[れもんは～と] 同窓会again ～若林 鮎 編～
2002-12-18,けらくの王 ～快楽の王～ 後編 発情･陵辱･奴隷
2002-12-18,こどもの時間 7
2002-12-13,メイドの館 ～絶望編～ 下巻
2002-12-13,白き天使達の輪舞 後編
2002-12-06,みずいろ 第二期 ～日和の章～
2002-11-29,ブラッドロイヤル Princess.2 ミルテ
2002-11-29,奴隷市場 SLAVEIII～Myia～
2002-11-25,ハイヌウェレ 収穫の夜 第二話 骨壷の中の灰
2002-11-25,不純異性交遊 大切な君へ
2002-11-25,夜が来る！ 第3夜 陵の月
2002-11-25,最終痴漢電車 Rail-2
2002-11-22,BLIND NIGHT 01 覚醒
2002-11-21,淫魔の幻影1 天空の妖精
2002-11-18,完全無修正 それぞれの放課後
2002-11-18,肉欲玩具宅配人 Vol.3 梱包虜囚地獄
2002-11-15,THE UROTSUKI 第3章
2002-11-15,淫獄病棟 後編
2002-10-25,愛しの言霊 第二章 帰還
2002-10-25,新世紀 淫魔聖伝 第6章
2002-10-25,新体操（仮）～妖精たちの輪舞曲～ デジタルリマスター版 Lesson1「淫世界のストレッチング」
2002-10-25,清純看護学院 新人ナース「祐未」恥虐の看護実習 ～1時姦目～
2002-10-25,犠母妹 壱「背徳の萌蕾」
2002-10-25,股人タクシー 獲物3 ミサキ・狩られた競泳水着
2002-10-25,胸キュン！ はぁとふるCafe にかいめ わたしを見て
2002-10-25,ロマンスは剣の輝きII 第6話 「あぁ～ん…フィニッシュウぅ～！？」
2002-10-18,けらくの王 ～快楽の王～ 中編 発情･陵辱･奴隷
2002-10-18,こどもの時間 6
2002-10-18,レザーマン 完結編
2002-10-11,BAD END 贖罪の教室 前編
2002-10-11,白き天使達の輪舞 前編
2002-09-27,Unbalance アンバランス MENU.2
2002-09-27,あしたの雪之丞 Round.1 秋の木漏れ陽
2002-09-27,それゆけまりんちゃん PROJECT.2「登場!!サウスポールワンの挑戦」
2002-09-27,螺旋回廊 case.02 香乃・堕悦
2002-09-27,超昂天使エスカレイヤー 第1話 DDダイナモ　チャージ完了!
2002-09-27,隷従学園 上姦
2002-09-27,鬼作 第4発「美人秘書は接待で追いこめ！」
2002-09-25,DEEP VOICE voice3 恥辱にまみれた治療
2002-09-25,WORDS WORTH外伝 後編 「怒涛の中へ…」
2002-09-25,ディープボイス voice3 恥辱にまみれた治療
2002-09-25,最終痴漢電車 Rail-1
2002-09-25,椿色のプリジオーネ 第2幕 ～玄い雪景色～
2002-09-18,KAMYLA3 カミイラ
2002-09-18,こどもの時間 5
2002-09-06,メイドの館 ～絶望編～ 上巻
2002-09-06,学園 ～恥辱の図式～ 後編
2002-08-30,ブラッドロイヤル Princess.1 咲夜
2002-08-30,奴隷市場 SLAVEII～Cecilia～
2002-08-28,靡・淫導師 美傀 淫辱の学園 Vol.2
2002-08-25,BibleBlack 外伝2 黒の祭壇
2002-08-25,G-taste 瀬能明日香
2002-08-25,Natural2 -DUO-第3話「久美子」
2002-08-25,夜が来る！ 第2夜 邪つの月
2002-08-25,股人タクシー 獲物2 姉妹狩り・玲名と瀬名
2002-08-25,胸キュン！ はぁとふるCafe いっかいめ 今日はどっちにする？
2002-08-25,～もみじ～ 第2巻 色づきはじめた若葉たち
2002-08-23,[020823][ピンクパイナップル]flutter of birds～鳥達の羽ばたき～第2章　線香花火
2002-08-23,みずいろ 第一期 ～雪希の章～
2002-08-23,新世紀くりいむレモン EP.02 亜美 RENCONTRER
2002-08-17,[020817][ANIMAC]少女小悪魔系 蠢く女たち 
2002-08-17,肉欲玩具宅配人 Vol.2 梱包虜囚地獄
2002-08-10,終ノ空（ついのそら）
2002-08-09,THE UROTSUKI 第2章
2002-08-09,淫獄病棟 前編
2002-07-26,屈折 第3話 そして僕は途方にくれた……
2002-07-26,愛しの言霊 第一章 昇華
2002-07-26,月花美人 第二縛 霧の宴
2002-07-26,顔のない月 第2夜「向日葵」
2002-07-25,mi・da・ra 3「お兄ちゃん、恥ずかしい…」
2002-07-25,WORDS WORTH外伝 前編 「奔流の中で…」
2002-07-25,月陽炎 第一夜 契りの夜
2002-07-25,[れもんは～と] 同窓会again ～小早川瑞穂 編～
2002-07-19,自慰倒錯 Vol.1 ～好奇心～
2002-07-18,けらくの王 ～快楽の王～ 前編 発情･陵辱･奴隷
2002-07-18,堕落 女教師破壊 ～上巻～
2002-07-18,肉欲玩具宅配人 Vol.1 梱包虜囚地獄
2002-07-05,[バニラ] エンジェルブレイド 2
2002-07-05,リトルモニカ物語 後編
2002-06-28,Hi・Me・Go・To
2002-06-28,Unbalance アンバランス MENU.1
2002-06-28,螺旋回廊 case.01 葵・懺華
2002-06-28,鬼作 第3発 「美人受付嬢は海水浴で追い込め！」
2002-06-25,DEEP VOICE voice2 喪失
2002-06-25,ディープボイス voice2 喪失
2002-06-25,学園まりあ 爆乳ティーチャーズ
2002-06-25,実習生 Lesson1 犯された性職者
2002-06-25,新世紀 淫魔聖伝 第5章
2002-06-25,椿色のプリジオーネ 第1幕 ～凍れる追憶～
2002-06-25,淫縛学艶 第一縛 奪われた純潔
2002-06-25,ロマンスは剣の輝きII 第5話 「エリーゼの…ためにぃ～！？」
2002-06-21,コ・コ・ロ…2
2002-06-18,レザーマン VOL.4
2002-06-07,ラブマシン アニマイド娼婦23号 後編
2002-06-07,学園 ～恥辱の図式～ 前編
2002-06-07,独占 後編
2002-06-01,JUN ～ジュン～ 天使のはばたき
2002-05-31,奴隷市場 SLAVE I～Bianca～
2002-05-31,黒姫 桎梏の館 前編
2002-05-25,BibleBlack 外伝1 黒の刻印
2002-05-25,ハイヌウェレ 収穫の夜 第一話 薔薇と雛罌粟
2002-05-25,愛は鍵の数だけ… 風俗マンション
2002-05-25,淫獣学園 復活篇 第四章
2002-05-25,股人タクシー 獲物1 令嬢・さつき
2002-05-24,[120524][ピンクパイナップル]flutter of birds～鳥達の羽ばたき～第1章　夏の星座
2002-05-24,屈折 第2話 何故僕は人形遊戯を楽しいと知ったのか？
2002-05-18,KAMYLA2 カミイラ
2002-05-18,レザーマン VOL.3
2002-05-17,幼●美少女みるくちゃん
2002-05-03,THE UROTSUKI 第1章
2002-05-03,スポットライト 後編
2002-05-02,ラブマシン アニマイド娼婦23号 前編
2002-04-26,とらいあんぐるハート　さざなみ女子寮 風薫る、秋
2002-04-26,奇術師×魔術師 王坂学園探偵部の事件簿 淫夜に笑う影ひとつ
2002-04-26,月花美人 第一縛 雪の宴
2002-04-25,DEEP VOICE voice1 禁断病棟
2002-04-25,WAVER 第3章 ”SM”の錯綜
2002-04-25,ディープボイス voice1 禁断病棟
2002-04-25,夜が来る！ 第1夜 双つの月
2002-04-25,～もみじ～ 第1巻 季節はずれの落葉
2002-04-18,フラッシュバックゲーム 3
2002-04-18,女王様はM奴隷
2002-04-05,アスガルド～歪曲のテスタメント～ 3rd Action「宿命のオーバード」
2002-04-05,リトルモニカ物語 前編
2002-04-05,贖罪の教室 後編
2002-03-29,紅蓮 第三幕 炎
2002-03-25,Canvas キャンバス ～セピア色のモチーフ～ 第2話 「展覧会の絵」
2002-03-25,mi・da・ra 2「お兄ちゃん、ア・ゲ・ル」
2002-03-25,ハンドルウィズケア Stage1 歌姫の鼓動
2002-03-25,新世紀 淫魔聖伝 第4章
2002-03-22,アイルMANIAX EPISODE.3
2002-03-22,鬼作 第2発 「美人ナースはお見合いで追い込め！」
2002-03-18,DNAハンター3
2002-03-18,少女小悪魔系 蠢く(うごめく)女たち
2002-03-08,二重奏  罠に落ちた女たち
2002-03-08,好きだよっ！後編
2002-03-08,独占 前編
2002-02-28,フーリガン 後編
2002-02-25,BibleBlack 第4章 黒の愛撫
2002-02-25,Natural2 -DUO-第2話「空」
2002-02-25,結界 カルテ1 心の性・臨床尋問
2002-02-22,DVINE [LUV] cace.4
2002-02-22,屈折 第1話 如何にして僕はその第一歩を踏み出したのか？
2002-02-22,続・恋姫 K・O・I・H・I・M・E 第2章 「長の巻」
2002-02-18,69ピンクライダーズ 2
2002-02-18,karen カレン
2002-02-18,レザーマン VOL.2
2002-02-18,黒瞳皇5
2002-02-08,スポットライト 前編
2002-02-01,妖囁 後編 黄泉（ひがん）
2002-01-25,G-taste ディレクターズカット ～メイド･シリーズ～
2002-01-25,mi・da・ra 1「お兄ちゃんは、何を望むの？」
2002-01-25,夜勤病棟 Karte.5
2002-01-25,帰ってきたコートの中の天使達 めざせ優勝！汗と涙の（秘）の合宿 後編
2002-01-25,淫獣学園 復活篇 第三章
2002-01-25,美しき獲物たちの学園 第二幕 女王由利香
2002-01-25,脅迫II～もうひとつの明日～ 3rd STAGE「チェーンブライド、明日香」
2002-01-25,鬼作 第1発 「ファザコン娘はパパの前でおいこめ！」
2002-01-25,ロマンスは剣の輝きII 第4話 「ユニコーン…もっと早くぅっ～！？」
2002-01-18,フラッシュバックゲーム 2
2002-01-18,背徳の少女 2 インモラル 家庭教師の調教
2002-01-11,とらいあんぐるハート　さざなみ女子寮 冬の誓い 前編
2002-01-11,義母 後編
2002-01-11,贖罪の教室 前編
2001-12-28,アスガルド～歪曲のテスタメント～ 2nd Action「蹂蹵のインタールード」
2001-12-28,紅蓮 第二幕 闇
2001-12-28,顔のない月 第1夜「椿」
2001-12-25,Canvas キャンバス ～セピア色のモチーフ～ 第1話 「未完成の素描（デッサン）」
2001-12-25,車畜 車の中で飼ってます
2001-12-24,それゆけまりんちゃん PROJECT.1「誕生!!愛と奉仕の乙女」
2001-12-21,G-taste 川村美鈴
2001-12-21,WAVER 第2章 ”M“の恍惚
2001-12-21,コ・コ・ロ…1
2001-12-21,ゼロの者 Collection1　月が欠ける
2001-12-21,プリマドンナ舞
2001-12-21,ミニスカ学園 (girls locker room lust)
2001-12-21,奥様は女子校生
2001-12-18,DNAハンター2
2001-12-18,靡・淫導師 美傀 淫辱の学園 Vol.1
2001-12-15,「女子大エッチ相談室」～University Girls Special Counseling～
2001-12-14,DVINE [LUV] cace.3
2001-12-14,[バニラ] エンジェルブレイド 1
2001-12-07,好きだよっ！前編
2001-12-01,メイド召しませ麻彩
2001-11-25,Natural2 -DUO-第1話 「千紗都」
2001-11-25,まじかるカナン VOL.4 カーマインより愛をこめて
2001-11-25,カラカラ様のひみつ ～天からきた女神～
2001-11-25,新世紀 淫魔聖伝 第3章
2001-11-23,CONCERTO.コンチェルト ～真夜中の淫声(しらべ)～A Midsummer Night`s Dream
2001-11-22,アイルMANIAX EPISODE.2
2001-11-22,猟奇の檻 第2章 第三幕「告げるなかれ…」
2001-11-22,続・恋姫 K・O・I・H・I・M・E 第1章 「里の巻」
2001-11-21,21時の女3 Nine O'clock Woman
2001-11-21,BibleBlack 第3章 黒の生贄
2001-11-21,ピュアメール 第二話 Reverte to mine
2001-11-21,女家庭教師 美少年狩り
2001-11-21,蒼い妖精
2001-11-18,レザーマン VOL.1
2001-11-09,フーリガン 前編
2001-11-09,真・瑠璃色の雪 其の四
2001-11-09,華・奴隷 後編
2001-11-08,乱交調教 メイドになった少女
2001-11-02,妖囁 前編 陰陽（あやし）
2001-10-26,アスガルド～歪曲のテスタメント～ 1st Action「暗麬のプレリュード」
2001-10-26,帰ってきたコートの中の天使達 めざせ優勝！汗と涙の（秘）の合宿 前編
2001-10-26,脅迫II～もうひとつの明日～ 2nd STAGE「ソドムクイーン、明日香」
2001-10-25,See In 青 Scene 2 帆波結衣
2001-10-25,ZERO SUM GAME SEX CRIME
2001-10-25,こわれもの2 HEAVEN2
2001-10-25,ロマンスは剣の輝きII 第3話 「いっやぁ～ん…呪い歌ぁ！？」
2001-10-21,SMノススメ 調教その1 禁断の地下室
2001-10-21,美しき獲物たちの学園 第一幕 新入生明日菜
2001-10-18,KAMYLA カミイラ
2001-10-18,フラッシュバックゲーム
2001-10-16,等身大マイラバー～ミナミ対メカミナミ～
2001-10-05,義母 前編
2001-10-05,閉鎖病棟 後編
2001-09-28,CONCERTO.コンチェルト ～真夏の夜の狂夢～A Midsummer Night`s Dream
2001-09-28,DNAハンター1
2001-09-28,夜勤病棟 Karte.4
2001-09-25,ピュアメール 第一話 Twisted mind
2001-09-25,プリンセスメモリー 後編
2001-09-25,爆発寸前！！ 天使のカウントダウン
2001-09-21,BibleBlack 第2章 黒の儀式
2001-09-21,WAVER 第1章 ”S”の覺醒
2001-09-21,ラブフォーエバー
2001-09-21,恥辱監禁 ～堕ちた天使たち～
2001-09-21,愛姉妹 ～ニ人の果実～ 第三夜「愛と悦楽に溺れて…」
2001-09-18,背徳の少女 義母飼育編
2001-09-07,懲らしめ 後編
2001-09-07,紅蓮 第一幕 鬼
2001-08-28,ファイブカード 第4話
2001-08-25,G-taste 水越沙耶香
2001-08-25,こわれもの2 HEAVEN1
2001-08-25,淫獣学園 復活篇 第二章
2001-08-25,ロマンスは剣の輝きII 第2話 「暗黒神ですってぇ～」
2001-08-24,DVINE [LUV] cace.2
2001-08-24,とらいあんぐるハート　さざなみ女子寮 冬の誓い 後編
2001-08-24,アイルMANIAX EPISODE.1
2001-08-24,真・瑠璃色の雪 其の三
2001-08-24,[ピンクパイナップル] 遺作～Respect～ 第三幕「快楽の果て」
2001-08-21,MOONLIGHT SONATA 第一章 月光の雫
2001-08-18,こどもの時間 4
2001-08-10,[バニラ] トレス・マリアス 3人の聖処女 後編
2001-08-10,特別授業1 後編
2001-08-10,華・奴隷 前編
2001-08-10,閉鎖病棟 前編
2001-07-28,夢現の境界4
2001-07-27,エスパー美少女まなみ
2001-07-27,ドール 沙綾
2001-07-27,新世紀くりいむレモン EP.01 エスカレーション ディ・リーベ
2001-07-27,猟奇の檻 第2章 第二幕「望むなかれ…」
2001-07-27,脅迫II～もうひとつの明日～ 1st STAGE「明日香、ハネムーンレイプ」
2001-07-25,el #2
2001-07-25,See In 青 Scene 1 如月優美
2001-07-25,まじかるカナン VOL.3 激突！カーマイン対セルリアンブルー
2001-07-25,新世紀 淫魔聖伝 第2章
2001-07-21,BibleBlack 第1章 黒魔術の学園
2001-07-18,傀儡哀～瞳裸外伝～
2001-06-29,Collector VOL.2 「夏…風の中で１＆２」「NEMU×NEMU」「精霊賛歌」
2001-06-28,淫辱の部屋
2001-06-28,黒瞳皇4
2001-06-25,MEZZO FORTE vol.2
2001-06-25,プリンセスメモリー 前編
2001-06-25,初夜 ヴァージン・ナイト
2001-06-22,夜勤病棟 Karte.3
2001-06-22,愛姉妹 ～ニ人の果実～ 第二夜「堕ちた優等生」
2001-06-22,淫夢2 ～恥辱の果肉祭～ 1st night
2001-06-21,人心遊戯2
2001-06-15,フェアリーフォレスト レミちゃん
2001-06-15,恥宮のアンドローラ
2001-06-15,懲らしめ 前編
2001-05-28,ファイブカード 第3話
2001-05-25,Collector VOL.1 「影牢」「触欲」「赫い雪」
2001-05-25,DVINE [LUV] cace.1
2001-05-25,G.T.R2
2001-05-25,カスタム隷奴 小夜子の章
2001-05-25,淫獣学園 復活篇 第一章
2001-05-25,[ピンクパイナップル] 遺作～Respect～ 第二幕「牝の芳香」
2001-05-21,STAIR スタイアー ～放課後のアルバム～
2001-05-18,瞳裸4 どうら
2001-05-11,特別授業1 前編
2001-05-04,霊能探偵ミコ 事件簿弐：ミワクとキョーフのペンダント
2001-04-28,黒瞳皇3
2001-04-27,平成女学園 課外レッスン
2001-04-27,愛姉妹 ～ニ人の果実～ 第一夜「汚されたマドンナ」
2001-04-27,猟奇の檻 第2章 第一幕「殺すなかれ…」
2001-04-27,真・瑠璃色の雪 其の二
2001-04-25,el #1
2001-04-25,続・御先祖賛江 第四話 「夢名残」
2001-04-21,21時の女2 Nine O'clock Woman
2001-04-18,ヴィシャス2
2001-04-09,哀・奴隷4
2001-03-28,夢現の境界3
2001-03-25,ロマンスは剣の輝きII 第1話 「えぇっ～！？魔王復活ぅ～！？」
2001-03-25,凌辱の都市 ～狂宴のセレモニー～
2001-03-25,新世紀 淫魔聖伝 第1章
2001-03-23,変貌～モラルハザード
2001-03-23,夜勤病棟 Karte.2
2001-03-23,淫夢2 ～彷徨の肉奴隷～ 2nd night
2001-03-23,警備員 第3話 「欲望の最終巡回」
2001-03-21,人心遊戯
2001-03-18,微熱姫 懺悔の章
2001-03-16,はるみちゃんのおいた
2001-03-16,[バニラ] トレス・マリアス 3人の聖処女 前編
2001-02-28,黒瞳皇2
2001-02-26,雛鳥の囀 後編
2001-02-25,続・御先祖賛江 第三話 「現身」
2001-02-23,警備員 第2話 「淫欲の監視モニター」
2001-02-23,[ピンクパイナップル] 遺作～Respect～ 第一幕「恥辱の牢獄」
2001-02-21,21時の女1 Nine O'clock Woman
2001-02-18,こどもの時間 3
2001-02-16,キャンパス 後編
2001-01-28,夢現の境界2
2001-01-26,臭作～Replay～ 第四夜「高部絵里」
2001-01-19,めいKing エピソード 4
2001-01-18,ヴィシャス
2001-01-12,とらいあんぐるハート　さざなみ女子寮 夏のゆうひ
2000-12-28,ファイブカード 第2話
2000-12-25,コートの中の天使達 2nd SET
2000-12-22,Yellow Star イエロースター(1996年CD-07就已販售)
2000-12-22,真・瑠璃色の雪 其の一
2000-12-21,G-taste 神無月舞
2000-12-21,続・御先祖賛江 第二話 「陽炎」
2000-12-20,闇市場(オークション) ～美女奴隷～
2000-12-18,こどもの時間 2
2000-12-15,哀・奴隷3
2000-12-15,堕楽 後編
2000-12-08,夜勤病棟 Karte.1
2000-12-08,恋図（れんず）  ～ふたりの距離～
2000-11-28,黒瞳皇1
2000-11-26,雛鳥の囀 前編
2000-11-25,WORDS WORTH VOL.5 「煌めきの果て」
2000-11-25,まじかるカナン VOL.2 エンジェル◆キッス 危機一髪！
2000-11-24,恋姫 K・O・I・H・I・M・E 第2章「姫の巻」
2000-11-24,臭作～Replay～ 第三夜「南 綾香」
2000-11-24,警備員 第1話 「密猟のデパート」
2000-11-20,こわれもの3  Fragile Hearts Series
2000-11-18,アンダーワールド閻魔国
2000-11-18,瞳裸3 どうら
2000-11-10,キャンパス 前編
2000-10-28,夢現の境界
2000-10-27,luv wave The 3rd process 「ネクロス」
2000-10-27,M.E.M.污された純潔 Karte No.02「破花なき命」
2000-10-27,コートの中の天使達 1st SET
2000-10-27,リフレインブルー 第3章 碧波の永遠
2000-10-25,百喜夜行 わらし
2000-10-25,続・御先祖賛江 第一話 「春暁」
2000-10-18,聖少・女玩具 アリスドール2
2000-10-13,G.T.R
2000-10-13,[バニラ] となりのお姉さん 後編
2000-09-28,ファイブカード 第1話
2000-09-25,G-taste 森村奈々
2000-09-25,鬼点睛 第4話 「麗子」
2000-09-25,黒の断章 第四章
2000-09-22,恋姫 K・O・I・H・I・M・E 第1章「恋の巻」
2000-09-22,臭作～Replay～ 第二夜「藤間萌子」
2000-09-18,緋色の刻 巻乃完
2000-09-15,堕楽 前編
2000-08-28,とらいあんぐるハート　さざなみ女子寮 春のさざなみ
2000-08-25,M.E.M.污された純潔 Karte No.01「白衣の鬼畜」
2000-08-25,WORDS WORTH VOL.4 「光、影そして闇」
2000-08-25,まじかるカナン VOL.1 「登場！深紅の魔法戦士カーマイン◆」
2000-08-25,リフレインブルー 第2章 月影の下で…
2000-08-25,霊能探偵ミコ 事件簿壱：カンロクのドッペルゲンガー
2000-08-21,サイレントチェイサー狩神
2000-08-18,緋色の刻 巻乃四
2000-08-18,聖少・女玩具 アリスドール1
2000-08-11,めいKing エピソード 3
2000-07-28,luv wave The 2nd process 「プロトコル」
2000-07-28,臭作～Replay～ 第一夜「栗原朝美」
2000-07-22,鬼点睛 第3話 「辯戈天」
2000-07-18,瞳裸2 どうら
2000-07-14,[バニラ] となりのお姉さん 前編
2000-06-30,69ピンクライダーズ 1
2000-06-26,黒の断章 第三章
2000-06-25,Natural 第4話 ～身も心も～
2000-06-25,ヤーリマクイーン
2000-06-23,リフレインブルー 第1章 緋色の追憶
2000-06-23,無人島物語XX File4 「髪帯（リボン）」
2000-06-23,脅迫～終わらない明日～ STAGE3 LAST STAGE　秋山明日香
2000-06-20,こわれもの2  Fragile Hearts Series
2000-06-18,緋色の刻 巻乃参
2000-06-16,哀・奴隷2
2000-06-09,Try Z トライゼット
2000-05-26,無人島物語XX File3 「鍵盤（ピアノ）」
2000-05-25,MEZZO FORTE vol.1
2000-05-25,WORDS WORTH VOL.3 「伝説の剣士」
2000-05-25,鬼点睛 第2話 「天使」
2000-05-22,くノ一学園忍法帖 後編
2000-05-20,こわれもの1 Fragile Hearts Series
2000-05-19,緊縛の館 ～略奪～後編
2000-05-18,こどもの時間 1
2000-05-05,微熱 約束のとき
2000-04-28,淫夢1 ～生贄の宴～ 2nd night
2000-04-07,エンドレスセレナーデ
2000-03-31,luv wave The 1st process 「コネクト」
2000-03-29,殻の中の小鳥 V～最終章～
2000-03-25,煌きの姉弟妹 ～SEX CRIME～
2000-03-25,鬼点睛 第1話 「鬼」
2000-03-24,脅迫～終わらない明日～ STAGE2　弓子と未来
2000-03-21,くノ一学園忍法帖 前編
2000-03-18,緋色の刻 巻乃弐
2000-03-17,女畜
2000-03-17,姉妹いじり 後編
2000-03-17,聖贄
2000-02-25,Natural 第3話 ～思いはじけて…～
2000-02-25,回春 後編 彌勒編
2000-02-25,無人島物語XX File2 「首飾り」
2000-02-18,瞳裸1 どうら
2000-02-18,緊縛の館 ～略奪～前編
2000-01-31,黒の断章 第二章
2000-01-28,回春 前編 曼陀羅の試薬
2000-01-26,聖操奴隷2 あやつりにんぎょう
2000-01-21,淫夢1 ～生贄の宴～ 1st night
2000-01-14,めいKing エピソード 2
1999-12-18,G-taste 八木沢萌
1999-12-18,もぎたてマリナちゃん
1999-12-17,姉妹いじり 前編
1999-12-17,脅迫～終わらない明日～ STAGE1　結城綾
1999-11-30,シスターズ輪舞 Charm Point 1
1999-11-26,無人島物語XX File1 「自鳴琴」
1999-11-25,WORDS WORTH VOL.2 「神々の戯れ」
1999-11-19,KISSより… 第3章
1999-11-18,原罪病棟 カルテII
1999-10-29,めいKing エピソード 1
1999-10-29,黒の断章 第一章
1999-10-25,アドバンサー ティナ
1999-10-22,臭作 第三章「おやぢのプライド」
1999-10-18,スパイラル オーヴァ Vol.1
1999-09-25,ピッコマンの鬼畜道  真夜中のみるくパーティー
1999-09-25,殻の中の小鳥 IV ～リース・ウェン・ネフタ～
1999-09-24,YU-NO 第4幕 「世界の果てで女神は唄う」
1999-09-18,緋色の刻 巻乃壱
1999-09-10,KISSより… 第2章
1999-08-27,ドラゴンナイト4 MAP4
1999-08-27,保健室で逢いましょう
1999-08-25,Natural 第2話 ～ひとつに溶けて～
1999-08-25,WORDS WORTH VOL.1 「光と影の伝説」
1999-08-22,聖操奴隷 あやつりにんぎょう
1999-07-23,快楽殺人調査官 KoJi File3
1999-07-22,マイ ライフ アズ
1999-07-16,新リヨン伝説 もう一人のフレア
1999-07-09,KISSより… 第1章
1999-06-26,殻の中の小鳥 III ～アイシャ・ファーファリス～
1999-06-25,YU-NO 第3幕 「分岐点のシンデレラ」
1999-06-25,臭作 第二章「おやぢの美学」
1999-06-22,原罪病棟 カルテI
1999-05-27,快楽殺人調査官 KoJi File2
1999-05-25,Detective File.1 禁断の愛
1999-05-25,Natural 第1話 ～心ひかれて～
1999-05-21,ドラゴンナイト4 MAP3
1999-05-21,淫獣 ～ねらわれた花嫁～ 後篇
1999-04-25,Space Ofera アッガ・ルター 第四話 「君にMUNEキュン」
1999-04-25,学園ソドム VOL.2
1999-04-23,Piaキャロットへようこそ!!2 Menu3
1999-04-23,無人島物語X 第4話 「夜明」
1999-03-26,ドラゴンナイト4 MAP2
1999-03-26,快楽殺人調査官 KoJi File1
1999-03-26,[ピンクパイナップル] 遺作 終劇「罪と罰」
1999-03-25,御先祖賛江 第四話 「常少女」
1999-02-26,臭作 第一章「おやぢの花園」
1999-02-25,Space Ofera アッガ・ルター 第三話 「元祖 大四畳半細腕繁盛記」
1999-02-24,殻の中の小鳥 II ～ユウキ・レン～
1999-01-25,御先祖賛江 第三話 「恋闇」
1999-01-22,Piaキャロットへようこそ!!2 Menu.2
1999-01-22,無人島物語X 第3話 「疑心」
1999-01-08,Rhythm 恋の律動2  Premium ぬくもり
1999-01-01,淫獣 ～ねらわれた花嫁～ 前篇
1998-12-28,A KITE 後編
1998-12-28,同級生2 最終章 兄妹･･･それとも･･･
1998-12-18,Space Ofera アッガ・ルター 第二話 「いさましいチビのトラブルメイカー」
1998-12-18,ミッドナイトパンサー VOL.2
1998-12-11,Rhythm 恋の律動1 Premium 始まり
1998-11-27,ショーヨノイド 真琴(まこっ)ちゃん 2
1998-11-27,ドラゴンナイト4 MAP1
1998-11-25,学園ソドム VOL.1
1998-11-21,御先祖賛江 第二話 「誰彼」
1998-11-19,交淫天使 ～背徳のリセエンヌ～
1998-10-25,Space Ofera アッガ・ルター 第一話 「少年期の終わり」
1998-10-23,Piaキャロットへようこそ!!2 Menu.1
1998-10-23,YU-NO 第1幕 「誘惑する事象たち」
1998-10-23,無人島物語X 第2話 「罠」
1998-09-25,Love2ポリス
1998-09-25,ショーヨノイド 真琴(まこっ)ちゃん
1998-09-25,同窓会 第4話『いつわりの告白』
1998-09-25,同級生2 第11章 夢､それから･･･
1998-09-25,御先祖賛江 第一話 「面影」
1998-09-24,殻の中の小鳥 I ～クレア・バートン～
1998-09-11,テラストーリー 2  Premium 僕の天使
1998-09-04,ジュリエット
1998-08-25,ミッドナイトパンサー VOL.1
1998-08-21,放課後恋愛クラブ 恋のエチュード 第2話
1998-08-14,テラストーリー Premium 告白
1998-07-25,A KITE 前編
1998-07-24,無人島物語X 第1話 「漂着」
1998-07-22,淫魔大戦
1998-06-26,同級生2 第10章 出会い･そして･･･
1998-06-26,闘神都市II 血戦篇
1998-06-25,ピアニスト
1998-06-17,同窓会 第3話『うつりゆく想い』
1998-05-29,ビ・ヨンド 第2話 「伝説 ～The legend of Satan；the Devil～」
1998-05-29,[ピンクパイナップル] 遺作 惨劇三「美由紀」
1998-04-25,魔法少女メルル 第2話 ～サハギンの河～
1998-04-24,GLO・RI・A　～グロリア 禁断の血族～ Vol.3「AWAKEN」
1998-04-24,放課後恋愛クラブ 恋のエチュード 第1話
1998-04-23,Piaキャロットへようこそ!! Menu3
1998-03-27,同窓会 第2話『二人だけの花火』
1998-03-27,闘神都市II 激闘篇
1998-03-25,2×1 Vol.2
1998-02-27,ビ・ヨンド 第1話 「覚醒 ～awakening Satan；the Devil～」
1998-02-27,同級生2 第9章 刻の流れに･･･
1998-02-27,淫魔大都市3 淫魔蘇生編
1998-02-27,[ピンクパイナップル] 遺作 惨劇二「琴未」
1998-02-25,2×1 Vol.1
1998-02-25,ドリームハザード
1998-02-20,Wake Up! アリア 魔女っ娘バージン危機一髪
1998-01-25,MOMONE 桃音
1998-01-23,GLO・RI・A　～グロリア 禁断の血族～ Vol.2「JEALOUSY」
1998-01-23,Piaキャロットへようこそ!! Menu2
1998-01-23,微熱症候群 ただいま診察中
1997-12-19,同窓会 第1話『再会は恋の始まり』
1997-12-19,同級生2 第8章 それぞれの春 そして･･･
1997-12-19,闘神都市II 青嵐篇
1997-11-28,GLO・RI・A　～グロリア 禁断の血族～ Vol.1「INVITATION」
1997-11-28,クールディバイシスシリーズ11 アイドル堕天使 理奈
1997-11-28,[ピンクパイナップル] 遺作 惨劇一「里香」
1997-11-25,居候天国 絶頂篇
1997-11-14,哀・奴隷
1997-11-01,淫魔妖女5
1997-10-25,ちゅっx2
1997-10-24,Piaキャロットへようこそ!! Menu1
1997-10-24,バーチャコール2 ACCESS.2 本当の想いを君に
1997-10-10,世紀末麗魔伝 キメイラ
1997-10-10,淫獣聖戦XX ツインエロス大全
1997-09-26,ぶっとび！！CPU 第3話 優雅にリセット
1997-09-26,ルナティックナイト3
1997-09-26,同級生2 第7章 さようなら･･･いつまでも･･･
1997-09-26,淫獣大決戦
1997-09-12,淫獣聖戦XX 4 羽衣飛翔篇
1997-08-29,えっちーず 第2話 かんたんな、かんけい
1997-08-29,バーチャコール2 ACCESS.1 バーチャルコールの世界へようこそ
1997-08-29,誘惑COUNT DOWN 鏡 第三章
1997-08-22,淫魔大都市2 淫魔覚醒編
1997-08-21,TOKIO機動ポリス Vol.2
1997-08-08,淫獣聖戦XX 3 姉妹奈落篇
1997-07-30,mama Vol.2
1997-07-21,TOKIO機動ポリス Vol.1
1997-07-21,真奈美&ナミ スプライト2
1997-07-11,淫獣聖戦XX 2 鬼畜都市篇
1997-07-02,淫獣 ねらわれたアイドル
1997-06-30,mama Vol.1
1997-06-27,ぶっとび！！CPU 第2話 やさしくハングアップ
1997-06-27,エイミーと呼ばないでっ 第2話
1997-06-27,同級生2 第6章 心もよう､くもりのち･･･
1997-06-27,魔法の詩保ちゃん 第2話「夏のバカンス」
1997-06-23,えっちーず 第1話 UNIO FAMILIA
1997-06-13,淫獣聖戦XX 1 魔王新生篇
1997-05-23,淫魔妖女4
1997-05-23,誘惑COUNT DOWN 鏡 第二章
1997-04-25,ぶっとび！！CPU 第1話 過激にアクセス！
1997-04-25,河原崎家の一族 THE ANIMATION 後編
1997-04-21,きゃんきゃんバニーエクストラ Vol.6
1997-04-21,真奈美&ナミ スプライト
1997-04-04,ルナティックナイト2
1997-03-28,同級生2 第5章 ホワイト･クリスマス･･･
1997-03-28,誘惑COUNT DOWN 鏡 第一章
1997-03-21,クールディバイシスシリーズ10 拘束 BINDING
1997-02-28,エイミーと呼ばないでっ 第1話
1997-02-28,淫獣VS女スパイ
1997-02-21,きゃんきゃんバニーエクストラ Vol.5
1997-02-14,微熱症候群 保健室へようこそ
1997-01-30,クールディバイシスシリーズ9 奴隷戦士マヤ VOL.2
1997-01-24,転校生 Etude.4「ChiristmasMemory」
1997-01-24,野々村病院の人々 THE ANIMATION 後篇
1997-01-24,魔討綺譚 斬奸 -ZANKAN!- 第2巻
1997-01-21,魔法少女メルル 第1話 ～オーガの山～
1997-01-01,淫獣エイリアン
1996-12-28,超神伝説うろつき童子 完結篇 真・超神降臨
1996-12-24,同級生2 第4章 秋･枯葉の季節に･･･
1996-12-24,着ぐるみ戦隊キルティアン 第2話「発進！メタルパピィ！！」
1996-12-20,きゃんきゃんバニーエクストラ Vol.4
1996-12-18,クールディバイシスシリーズ8 奴隷戦士マヤ VOL.1
1996-12-18,ミネルバの剣士 払暁の章
1996-11-30,クールディバイシスシリーズ7 YELLOW STAR
1996-11-29,忍法乱れからくり 其の二  くノ一逆襲 蜜地獄
1996-11-29,河原崎家の一族 THE ANIMATION 前編
1996-11-29,淫獣家庭教師
1996-11-21,居候天国
1996-11-18,野々村病院の人々 THE ANIMATION 前篇
1996-11-08,淫獣学園 EX4
1996-11-01,個人授業 ～Lesson.2 ERIKA～
1996-10-25,淫獣女教師3
1996-10-25,魔法の詩保ちゃん 第1話「南極よりの使者」
1996-10-21,ミネルバの剣士 風雲の章
1996-10-11,淫獣学園 EX3
1996-09-27,個人授業 ～Lesson.1 YURI～
1996-09-27,同級生2 第3章 夏･別れ･そして･･･
1996-09-27,新リヨン伝説 漆黒の魔神
1996-09-27,未来超獣フォビア2
1996-09-27,魔討綺譚 斬奸 -ZANKAN!- 第1巻
1996-09-21,クールディバイシスシリーズ6 SEEK-2 女王沙貴
1996-09-21,ルナティックナイト1
1996-09-13,妖獣教室外伝 Ep.4=妖獣教室外伝3 聖母のエクスタシー
1996-08-23,忍法乱れからくり 其の一  抜け忍 巴え恋
1996-08-23,淫獣学園 EX2
1996-08-23,転校生 Etude.3「ドキドキ個人教授」
1996-08-21,アドバンサーティナ
1996-07-26,パレード・パレード SIDEB
1996-07-26,亜紀子 第2話
1996-07-26,妖獣教室外伝 Ep.3=妖獸教室外伝2 エロス女神降臨
1996-07-26,淫獣学園 EX
1996-07-26,着ぐるみ戦隊キルティアン 第1話「着脱！キルティアン！？」
1996-07-21,クールディバイシスシリーズ5 SEEK 牝奴隷 大倉真梨乃
1996-07-21,ミネルバの剣士 羽化の章
1996-06-28,同級生2 第2章 初夏･雨上がり
1996-06-28,外道学園Z ～悪魔狩りの夜～
1996-06-21,SOAPのMOKOちゃん
1996-06-21,オーキッド★エンブレム (Orchid Emblem)
1996-05-24,とらぶるEVOCATION Vol.2
1996-05-24,淫魔大都市1 ビースト・シティ
1996-05-24,転校生 Etude.2「白衣のゆ・う・わ・く」
1996-05-21,人形使い
1996-05-21,聖少女戦隊レイカーズ EX
1996-05-17,きゃんきゃんバニーエクストラ Vol.3
1996-05-03,ハレンチ紅門マン遊記
1996-05-03,淫魔妖女3
1996-04-26,パレード・パレード SIDEA
1996-04-26,淫獣女教師2
1996-04-21,[遊人]ヴィジョナリィ3 美少女ヴァンパイア伝説
1996-04-21,南極28号
1996-03-22,ステンレス・ナイト 第2巻 2021 SAYAKA
1996-03-22,同級生2 第1章 桜の舞うころ･･･
1996-03-21,クールディバイシスシリーズ4 綺麗 KI・RE・I
1996-03-18,転校生 Etude.1「隣の転校生」
1996-03-15,きゃんきゃんバニーエクストラ Vol.2
1996-03-15,同級生 クライマックスファイル2
1996-03-08,とらぶるEVOCATION Vol.1
1996-03-08,妖獣教室外伝 Ep.2=妖獣教室外伝 劇場篇 後篇
1996-03-01,平成ハレンチ学園
1996-02-23,亜紀子 第1話
1996-02-21,クールディバイシスシリーズ3 愛玩少女
1996-02-21,[遊人]ヴィジョナリィ2 女子校生は超エッチ
1996-02-02,淫魔妖女2
1996-01-26,ドラゴンライダー 下巻
1996-01-19,きゃんきゃんバニーエクストラ Vol.1
1996-01-12,妖獣教室外伝 Ep.1=妖獣教室外伝 劇場篇 前篇
1995-12-22,ステンレス・ナイト 第1巻 2010 LINEAR
1995-12-22,同級生 クライマックスファイル1
1995-12-10,外道学園 4-果てしなき戦いへの序曲-
1995-11-22,新・エンジェル 第5話
1995-11-11,聖ミカエラ学園漂流記 2 上巻
1995-10-27,エルフの若奥様 第二章
1995-10-27,ドラゴンライダー 上巻
1995-10-27,未来超獣フォビア1
1995-10-21,クールディバイシスシリーズ2 SACRED GIRL 聖少女
1995-10-13,嘆きの健康優良児3
1995-09-25,ミネルバの剣士2 黎明の章
1995-09-08,淫獣教師4
1995-08-25,エルフの若奥様 第一章
1995-08-25,[遊人]ヴィジョナリィ  あなたの夢かなえます
1995-08-25,新・エンジェル 第4話
1995-08-25,淫獣聖戦 ツインエンジェル快楽大全
1995-08-25,誘惑COUNT DOWN 「バージン・ロード」
1995-08-19,外道学園 3-神々の大いなる欲望-
1995-08-11,淫獣聖戦4 ツインエンジェル
1995-07-21,ドラゴンピンク 第3話
1995-07-21,マジカルトワイライト3
1995-07-21,淫獣女教師1
1995-07-14,淫獣聖戦3  ツインエンジェル
1995-07-07,淫獣教師3
1995-06-30,ゆんゆん☆パラダイス
1995-06-30,ドラゴンピンク 第2話
1995-06-30,新・エンジェル 第3話
1995-06-21,真・女神転生 後編  東京黙示録
1995-06-15,誘惑COUNT DOWN 「ずっと甘いくちびる」
1995-06-09,淫獣聖戦2 ツインエンジェル
1995-05-26,マジカルトワイライト2
1995-05-20,超神伝説うろつき童子 放浪篇 3 旅、果つる処
1995-05-12,同級生 夏の終わりに 第4話「桜木 舞」
1995-05-12,淫獣聖戦 ツインエンジェル
1995-04-28,淫獣教師2
1995-04-25,クールディバイシスシリーズ1 CURIOUS FRUIT 奇妙な果実
1995-04-21,新・エンジェル 第2話
1995-04-21,真・女神転生 前編  東京黙示録
1995-03-17,同級生 夏の終わりに 第3話「仁科くるみ」
1995-03-10,お天気お姉さん 2
1995-02-25,ドラゴンナイト外伝
1995-02-25,熱砂の惑星2　－性の牝犬ケイト－
1995-02-01,外道学園 2-魔王アクィフェルの嘆き-
1995-01-01,OVA ステンレスナイト(STAINLESS NIGHT)
1994-12-17,ミネルバの剣士 邂逅の章
1994-12-09,セーラー戦士 ヴィーナス・ファイブ2 淫魔の迷宮
1994-11-25,プリンセスロード  薔薇と髑髏の紋章
1994-11-22,淫魔妖女1
1994-11-11,お天気お姉さん
1994-11-11,セーラー戦士 ヴィーナス・ファイブ1 淫魔の舞踏会
1994-10-28,THE レイプマン アニメ・バージョン
1994-10-21,外道学園 1-魔王エセデスの復活-
1994-10-21,淫獣教師1
1994-10-11,聖ミカエラ学園漂流記 2 上巻
1994-09-22,新・エンジェル 第1話
1994-09-09,同級生 夏の終わりに 第2話「黒川さとみ」
1994-09-09,美しき性の伝道師 麗々 第二夜
1994-08-26,淫獣聖戦 聖獣伝 ツインドールズ2
1994-08-05,ドラゴンピンク 第1話
1994-08-05,嘆きの健康優良児
1994-07-22,ランス 砂漠のガーディアン
1994-07-22,ランス 砂漠のガーディアン2
1994-07-22,淫獣聖戦 聖獣伝 ツインドールズ1
1994-07-21,熱砂の惑星－女公安官ケイト－
1994-07-08,マジカルトワイライト(Magical Twilight)
1994-07-08,同級生 夏の終わりに 第1話「田中美沙」
1994-07-08,美しき性の伝道師 麗々 第一夜
1994-05-27,妖獣教室6
1994-05-26,嘆きの健康優良児2
1994-05-13,妖獣教室5
1994-03-25,淫獣学園 La Blue Girl 06
1994-03-21,超神伝説うろつき童子 放浪篇 2 神への長い道
1994-01-28,淫獣学園 La Blue Girl 05
1994-01-21,その気にさせてよ my マイ 舞 下巻
1993-12-21,超神伝説うろつき童子 放浪篇 1 秘密の花園
1993-12-16,その気にさせてよ my マイ 舞 上巻
1993-10-21,妖獣戦線 アドベンチャーKID3
1993-08-27,どチンピラ アニメ・バージョン
1993-08-21,超神伝説うろつき童子 未來篇 第四話 未知への旅立ち
1993-07-23,女郎 めろう MELLOW 
1993-07-09,淫獣学園 La Blue Girl 04
1993-06-05,淫獣学園 La Blue Girl 03
1993-05-21,超神伝説うろつき童子 未來篇 第三話 シーザーズ・パレスの崩壊
1993-03-21,妖獣戦線 アドベンチャーKID2
1993-03-19,くりいむレモン 続・黒猫館
1993-01-21,超神伝説うろつき童子 未來篇 第二話 シーザーズ・パレスの謎
1992-12-11,淫獣学園 La Blue Girl 02
1992-10-01,超神伝説うろつき童子 未來篇 第一話 真・超神の誕生
1992-09-14,花平(はなっぺ)バズーカ
1992-08-25,校内写生Final
1992-07-21,妖獣戦線 アドベンチャーKID1
1992-07-17,くりいむレモン 青い性～アンジェ＆ローズ
1992-07-15,ガイ2 黄金の女神編
1992-06-26,淫獣学園 La Blue Girl 01
1992-04-24,究極のSEXアドベンチャー カーマスートラ
1992-03-21,お元気クリニック3
1992-03-01,モンキーパンチの世界 アリス
1992-02-21,お元気クリニック2
1991-12-27,遊人ブランド
1991-12-21,あげまんと福ちん
1991-10-25,ドラゴンナイト
1991-10-18,妖獣教室4
1991-09-27,テレクラの秘密2 
1991-08-25,校内写生2
1991-08-23,テレクラの秘密1
1991-07-26,妖獣教室2
1991-07-26,妖獣教室3
1991-07-25,聖ミカエラ学園漂流記 下巻
1991-07-20,お元気クリニック1
1991-04-10,真・超神伝説うろつき童子・魔胎伝 下 新宿摩天楼大戦
1991-03-08,新・堕靡泥の星 淫魔伝説
1991-01-18,井原西鶴 好色一代男
1990-12-01,真・超神伝説うろつき童子・魔胎伝 上 狂王復活への祈り
1990-09-13,MOMOKO VOL.2 オーディション、わたしこそヒロイン！
1990-08-25,Angel エンジェル
1990-08-24,冒険してもいい頃3 アポロ軍団ゲリラ撮影隊参上！
1990-08-21,くりいむレモン 森山塔ベストヒット そうかもしんない
1990-08-10,やる気まんまん3「KYOTOハーレムナイト」
1990-08-01,MOMOKO VOL.1 モモコをさがせ！
1990-07-21,くりいむレモン 亜麻木硅ベストヒット チェリーなゆううつ
1990-06-22,聖ミカエラ学園漂流記 上巻
1990-06-21,くりいむレモン 唯登詩樹ベストヒット ヨーロッパの印象
1990-06-05,堕靡泥の星 第4弾 悪霊は永遠に
1990-05-25,妖獣教室1
1990-05-25,校内写生
1990-05-21,くりいむレモン 亜美・それから 第4部完結編～微笑みの中で～
1990-04-05,堕靡泥の星 第3弾 陰獣の砦
1990-03-21,冒険してもいい頃2 青春!燃えてクランクイン！
1990-03-19,やる気まんまん2「昇天！ソープ嬢」
1990-02-05,堕靡泥の星 第2弾 アイドル凌辱
1990-01-22,YU-NO 第2幕 「不連続体のコンチェルト」
1989-12-05,堕靡泥の星 第1弾 悪霊誕生
1989-11-12,冒険してもいい頃1 初挑戦!AV業界!!
1989-09-01,くりいむレモン 魔道都市アスタロト
1989-08-21,リヨン伝説 フレア2
1989-08-11,やる気まんまん1「秘技芸者篇」
1989-06-21,くりいむレモン 亜美・それから 第3部～抱かれたいのに～
1989-04-10,超神伝説 うろつき童子 3 完結地獄篇
1989-02-03,くりいむレモン 亜美・それから 第2部～忘れたいのに～
1988-12-06,ガイ1 妖魔覚醒
1988-10-21,くりいむレモン 亜美・それから 第1部～哀しみの中で～
1988-06-21,くりいむレモン EP.S1 幻のくりぃむレモンPa
1988-05-25,バルテュス ティアの輝き
1988-05-25,艶笑日本昔ばなし
1988-04-30,学園源氏物語 「裸のゲンちゃん一発入魂」
1988-04-15,かぐや姫 竹取物語
1988-03-21,新くりいむレモン 森山塔スペシャルⅡ放課後×××
1988-03-21,超神伝説うろつき童子 2 超神呪殺篇 
1988-01-21,新くりいむレモン e・tudeⅡ～早春コンチェルト～
1987-12-26,新くりいむレモン 二人のハートブレイクライブ
1987-11-05,くりいむレモン 卒業アルバム ～くりいむレモン 名場面集～
1987-07-30,新くりいむレモン サマーウィンド～少女たちが運んだ夏～
1987-07-01,新くりいむレモン ゆめいろBUNNY
1987-06-25,くりいむレモン くりいむレモンスペシャル DARK
1987-06-21,新くりいむレモン e・tude～雪の鼓動～
1987-05-25,Battle Can★Can
1987-05-25,バトルキャン２
1987-05-01,新くりいむレモン 魔人形 (madol)
1987-04-15,新くりいむレモン ホワイト・シャドウ
1987-03-21,新くりいむレモン 森山塔スペシャル 5時間目のヴィーナス
1987-02-21,くりいむレモン EP.16 エスカレーション3～天使たちのエピローグ～
1987-01-28,ボディジャック 楽しい幽体離脱 ノーカット18禁バージョン
1987-01-21,超神伝説うろつき童子 1 超神誕生篇
1986-12-05,くりいむレモン EP.15 超次元伝説 ラル・～ラモー・ルー逆襲～
1986-08-10,くりいむレモン 旅立ち ー亜美・終章ー
1986-08-05,くりいむレモン EP.14 なりすスクランブル
1986-07-14,リヨン伝説 フレア
1986-05-25,くりいむレモン EP.13 亜美 III
1986-02-25,くりいむレモン EP.12 いけないマコちゃん MAKO　セクシーシンフォニー後編
1986-01-25,くりいむレモン EP.11 黒猫館
1985-12-25,くりいむレモン EP.10 STAR TRAP
1985-12-15,くりいむレモン 亜美・イマージュ～白い影～
1985-11-21,フルーツバージョン1
1985-11-21,フルーツバージョン2
1985-11-01,ラブリーシリーズ 創世記ラ
1985-10-20,くりいむレモン EP.09 ハプニングサマー
1985-10-05,SFロリータファンタジー OME-1 Vol.2 モデルさんはソープ嬢の巻
1985-09-10,くりいむレモン EP.08 スーパーバージン
1985-08-21,PUNKY FUNKY BABY
1985-08-21,シャイNing・めい
1985-08-21,テレパシスト愛Q315
1985-08-21,裸足の放課後
1985-07-23,SFロリータファンタジー OME-1 Vol.1 ペニウス基地は拷問城の巻
1985-07-12,くりいむレモン EP.07 いけないマコちゃん MAKO・セクシーシンフォニー前編
1985-07-10,Super Adult Animeation 青い体験2
1985-07-10,魔法のルージュ りっぷ☆すてぃっく
1985-07-01,ラブリー・シリーズ ブリーリシーズ 宇宙元年
1985-06-21,超能力少女バラバンバ
1985-06-10,ドリームハンター 麗夢(レム)
1985-05-25,くりいむレモン EP.06 エスカレーション2 ～禁断のソナタ～
1985-05-25,ロリータアニメ集：シーサイドエンジェル ＭＩＵ
1985-05-10,ペロペロキャンデー
1985-05-10,直子のトロピックエンジェル　～漂流～
1985-04-10,くりいむレモン EP.05 亜美・AGAIN
1985-03-13,くりいむレモン EP.04 POP♥CHASER
1985-03-10,堕天使たちの狂宴
1985-02-21,ロリータアニメⅤ：サーフドリーミング
1985-01-10,ロリコンエンジェル ～蜜の味～
1985-01-10,ロリータアニメ Vol.3 内山亜紀のおもらしゴッゴ
1984-12-22,オフィスレディー明菜ちゃん
1984-12-20,ロリータアニメⅣ：変奏曲
1984-12-15,ロリータアニメ Vol.1 内山亜紀のおビョーキ亜紀ちゃん
1984-12-15,ロリータアニメ Vol.2 内山亜紀のミルクのみ人形
1984-12-12,ザ・サティスファクション
1984-12-03,くりいむレモン EP.03 SF・超次元伝説ラル
1984-11-30,SEIKO 女子大生聖子ちゃん
1984-11-10,Super Adult Animeation 青い体験1
1984-09-10,くりいむレモン EP.02 エスカレーション ～今夜はハードコア～
1984-08-11,くりいむレモン EP.01 媚・妹・Baby
1984-07-21,ロリータアニメⅢ：仔猫ちゃんのいる店
1984-05-25,ロリータアニメⅡ：何日子の死んでもいい ～いけにえの祭壇
1984-02-21,ロリータアニメⅠ：雪の紅化粧 ～少女薔薇刑～
1983-01-01,オーパーツ・オーマン
1973-06-30,哀しみのペラドンナ(Kanashimi no Belladonna)
1970-09-15,クレオパトラ(Cleopatra)
1969-06-14,千夜一夜物語(Senya Ichiya Monogatari)
1905-06-16,ブルーシーガル Blue Seagull
1905-06-07,スケ番商会 キューティレモン PART1 ヴァージンロード
1905-06-07,スケ番商会 キューティレモン PART2 グラデュエイション（卒業）
1905-06-07,スケ番商会 キューティレモン PART3 ラストセレナーデ